21

7 7
38
6 0
2 3
4 2
1 3
2 6
4 0
3 5
4 4
2 0
2 3
6 3
5 0
1 3
2 5
6 2
5 5
4 0
6 0
5 1
2 0
1 2
0 1
4 6
3 1
5 6
6 2
0 3
6 1
5 2
5 6
2 0
1 5
2 1
1 4
4 0
5 0
4 4
4 4
269 150

19 9
16
15 2
5 8
5 0
18 4
14 5
11 7
11 1
11 3
6 1
9 8
17 5
11 1
0 3
12 3
15 5
4 5
409 3

16 2
11
9 1
2 0
2 0
10 1
14 0
11 0
8 0
0 0
13 1
8 0
0 0
416 156

26 50
12
9 43
13 21
6 13
24 47
21 26
12 7
6 13
24 17
23 42
4 42
5 36
8 13
184 92

29 26
12
11 2
11 4
9 8
3 14
0 23
3 11
24 19
18 21
3 22
22 23
12 10
26 17
72 104

12 8
36
2 0
5 5
9 1
9 0
8 7
7 3
6 3
0 1
6 5
4 7
8 5
1 7
6 1
1 0
7 4
3 5
0 5
0 3
11 1
2 2
7 0
7 6
9 4
5 6
4 5
4 3
8 1
10 7
2 7
10 6
5 6
0 0
8 2
3 1
11 4
7 5
497 145

17 45
24
11 41
6 33
16 43
12 4
11 35
11 36
9 22
8 18
3 31
2 35
8 15
4 22
3 38
0 44
8 32
16 33
15 35
14 39
6 1
13 33
0 39
2 37
3 0
0 20
60 194

20 9
9
9 2
11 0
3 8
8 6
14 7
1 6
7 7
1 8
18 2
495 102

18 48
31
8 25
3 10
10 32
10 14
9 22
4 21
16 25
17 19
16 25
14 32
10 10
6 15
13 29
5 39
5 33
0 11
15 11
11 41
0 26
15 38
14 38
4 25
5 3
8 40
15 16
4 17
15 39
3 35
1 29
10 43
14 33
223 28

26 33
2
4 5
23 20
203 44

18 50
14
6 44
6 27
5 8
10 5
11 28
5 48
17 36
9 20
11 34
9 23
17 4
16 11
7 35
6 32
34 5

34 39
18
17 15
28 38
21 15
31 34
10 25
19 2
14 36
9 17
29 20
20 6
32 15
17 36
21 38
18 21
24 29
6 7
32 1
11 0
393 144

13 15
39
0 0
1 3
5 0
5 9
7 0
9 1
11 3
6 3
12 8
4 10
8 0
10 6
4 4
4 8
0 0
8 1
8 3
10 10
0 3
10 5
3 11
11 4
9 14
3 2
4 7
7 12
9 1
10 13
2 1
11 5
11 7
5 12
8 11
11 11
2 13
8 3
10 1
8 6
8 9
136 14

5 45
36
0 40
4 44
4 25
1 42
4 40
1 16
0 29
4 35
3 29
0 6
3 40
3 30
1 25
3 25
4 38
3 19
1 3
4 35
1 24
2 21
3 37
4 40
2 12
3 17
0 9
2 19
4 23
2 44
0 0
4 42
1 1
0 27
3 15
3 3
0 17
0 1
282 40

11 48
32
1 28
9 46
1 11
6 2
10 46
5 6
4 6
6 30
7 2
5 46
8 20
0 18
0 32
8 40
4 27
8 39
2 19
10 6
1 38
1 7
3 4
7 39
7 0
10 34
10 26
7 8
0 34
2 20
0 15
6 32
3 31
1 7
325 90

24 33
32
11 16
6 5
7 29
15 23
18 10
23 15
17 21
20 25
9 23
7 31
6 30
20 21
16 1
1 24
23 21
23 18
15 29
5 11
7 18
17 15
15 15
16 27
10 29
13 5
0 10
11 32
19 28
7 29
0 8
11 13
16 19
11 31
415 9

22 12
40
0 4
6 3
10 11
1 7
20 6
16 5
5 5
0 6
4 8
16 2
8 4
1 4
4 1
18 0
21 1
10 8
1 9
0 10
7 3
7 8
1 9
7 11
10 2
20 4
12 10
21 9
6 0
6 1
13 5
3 4
21 7
6 8
1 10
17 0
6 4
2 1
17 2
0 10
10 11
13 11
263 27

13 17
30
9 16
2 2
8 0
3 0
10 5
10 15
10 6
9 5
1 9
8 14
6 16
10 13
1 13
11 3
8 15
12 7
0 9
6 11
3 5
1 5
10 7
12 10
10 1
10 15
10 10
12 14
3 16
1 16
0 0
4 11
330 42

6 50
18
5 33
4 35
1 23
2 49
0 49
4 44
2 43
2 33
4 30
1 14
1 25
0 16
4 6
3 15
0 16
1 21
5 8
0 10
31 137

39 42
19
29 32
15 25
4 9
20 38
22 6
19 2
33 0
7 30
18 15
32 11
35 14
8 27
33 21
20 18
15 25
38 11
37 20
31 27
20 23
305 76

25 35
29
7 11
8 13
20 3
6 7
1 13
6 29
17 0
12 31
3 22
12 25
9 5
15 14
15 13
14 23
23 17
0 0
7 26
9 11
0 1
14 8
14 2
5 21
4 8
13 30
24 3
23 32
19 12
17 4
12 29
479 79
