23

3 25
17
2 15
2 12
1 20
2 2
2 17
0 12
1 21
0 7
0 18
0 17
1 21
2 3
1 12
1 17
1 18
2 2
2 12
32 7

11 6
34
0 1
4 1
1 5
4 1
4 2
8 4
1 5
4 4
1 2
8 3
9 3
5 4
4 4
5 5
0 0
6 5
5 1
5 4
5 2
6 5
8 1
0 1
3 5
3 2
4 2
10 3
0 3
8 0
8 3
5 0
4 4
9 2
1 0
5 1
31 14

38 32
1
27 11
19 12

20 39
20
18 13
14 25
4 5
17 17
5 12
5 11
2 4
17 18
6 19
5 16
2 8
11 28
7 1
9 1
4 34
4 38
2 17
7 37
3 27
3 38
15 19

28 30
25
20 28
14 11
26 17
19 4
8 4
17 5
6 14
8 27
4 18
7 13
12 2
22 20
25 13
21 7
15 24
13 10
9 26
16 14
3 10
4 17
4 23
3 23
20 18
8 5
16 21
2 14

36 9
11
35 5
29 0
34 1
16 1
12 6
10 3
21 4
11 6
25 8
17 2
33 3
35 19

27 17
7
25 13
7 13
7 15
5 2
9 3
8 13
6 10
24 11

37 23
22
9 20
27 21
20 12
8 6
21 3
7 3
25 1
4 4
34 0
2 9
30 17
3 3
32 6
15 18
36 21
32 18
20 0
2 7
36 2
34 5
1 6
0 19
3 10

1 31
10
0 18
0 10
0 11
0 18
0 19
0 21
0 19
0 9
0 13
0 11
4 18

12 12
37
2 6
1 5
6 4
3 7
8 2
6 0
9 7
3 11
2 11
11 10
11 1
2 7
11 3
0 4
5 4
3 0
7 2
9 10
9 10
2 0
5 4
10 7
4 1
9 6
6 8
11 6
0 11
6 10
8 7
9 5
6 10
7 3
6 1
0 3
1 11
7 2
10 1
10 18

6 29
34
2 18
1 20
1 20
2 26
0 23
2 4
0 8
5 28
4 18
4 2
3 1
3 17
0 12
2 12
1 12
2 9
2 10
1 7
0 19
1 19
5 13
2 3
5 17
5 18
5 24
2 26
4 21
1 17
5 19
5 17
1 6
2 26
2 17
0 11
31 1

6 2
35
1 0
2 1
0 0
2 0
3 1
5 1
2 0
0 0
0 0
0 1
4 1
2 0
0 1
3 1
4 1
4 0
5 0
4 1
4 1
0 1
5 0
0 1
1 1
5 1
0 0
4 1
0 1
1 0
5 0
3 0
3 0
3 0
4 0
4 0
5 0
28 11

24 6
1
10 2
10 12

18 21
6
9 20
4 5
17 8
1 19
5 1
12 14
2 4

25 5
13
5 0
10 4
16 0
0 2
8 2
20 4
9 1
3 2
21 1
0 3
0 4
2 0
12 2
24 4

7 19
25
0 9
4 16
3 14
2 14
0 9
2 3
1 6
4 9
3 2
2 5
4 9
6 0
2 11
4 17
5 8
4 15
4 16
6 0
2 3
2 13
1 5
6 5
5 12
6 7
2 13
5 16

15 28
1
10 1
10 14

21 32
23
0 29
17 12
8 2
11 12
1 19
16 5
7 3
20 25
3 7
12 1
4 27
13 7
11 3
10 28
3 22
20 12
9 0
6 4
18 8
4 27
11 22
1 0
11 24
48 1

19 9
21
8 4
4 2
16 5
9 5
17 4
6 1
8 5
18 2
18 0
7 3
18 4
7 5
9 4
16 4
18 7
1 7
11 4
8 5
18 7
18 3
5 0
30 3

16 22
24
0 15
7 20
4 5
7 10
1 1
7 15
5 11
2 2
5 3
8 16
7 15
14 13
8 12
4 18
2 20
13 15
10 1
3 0
15 2
9 14
9 3
9 2
4 7
14 1
50 8

22 9
27
11 5
1 0
0 1
7 7
20 5
3 5
5 2
4 2
4 5
18 3
21 3
7 6
2 8
15 8
21 5
11 1
11 0
6 6
5 5
17 0
13 5
16 1
8 3
12 8
10 8
17 5
18 3
40 10

8 38
12
5 27
1 8
7 32
5 1
1 18
1 11
2 31
6 35
3 20
3 11
1 14
0 27
3 10

22 28
20
9 9
17 14
2 7
2 4
7 7
10 18
1 22
17 10
21 10
7 9
14 8
13 24
10 10
13 20
21 16
7 20
4 7
12 14
15 19
0 22
48 3
