22

10 6
8
7 3
7 1
9 3
0 2
2 1
9 5
6 1
7 2
18 1

5 8
40
3 3
2 1
3 5
4 1
4 3
1 3
4 6
4 3
1 1
0 1
2 6
3 5
0 6
4 4
0 7
3 5
4 3
2 7
4 5
3 2
2 5
0 3
1 3
4 4
2 3
4 0
0 4
1 2
4 6
4 7
2 3
0 7
4 5
0 0
4 1
1 1
4 7
0 0
4 5
3 4
20 2

8 8
20
7 3
4 2
0 3
7 0
0 4
1 3
5 4
1 3
4 0
4 1
6 7
5 7
1 7
4 0
5 2
1 6
0 7
7 6
5 1
5 1
14 1

6 9
28
1 7
1 5
2 5
2 1
0 2
1 4
3 4
0 2
1 5
5 0
5 3
3 7
3 1
4 2
1 4
3 5
4 6
4 4
2 2
4 1
0 4
2 1
1 4
3 3
1 0
0 2
2 0
3 3
18 2

7 7
8
4 3
1 4
4 5
1 1
2 1
6 4
6 2
4 5
4 2

10 10
3
2 3
0 4
5 9
18 2

7 6
35
3 5
0 3
1 3
1 0
5 0
0 2
5 2
2 4
1 5
5 4
3 4
0 4
4 2
5 0
3 0
0 4
3 3
3 4
0 4
1 2
5 5
3 0
6 2
0 1
2 3
5 1
2 1
3 4
6 2
0 1
0 5
6 2
5 0
5 5
1 3
1 2

5 6
17
2 1
4 4
4 2
1 3
1 5
3 3
3 0
2 5
2 1
0 3
2 1
0 3
3 2
0 2
4 5
4 2
0 1
9 1

6 7
17
0 5
0 0
0 6
0 2
0 6
2 6
2 2
4 2
2 1
5 4
4 4
3 4
0 6
5 3
5 4
5 4
1 3
9 1

6 9
22
4 6
4 7
3 2
2 3
2 1
0 5
4 2
5 0
3 5
5 3
2 2
0 4
4 7
3 7
4 5
2 8
1 5
2 6
3 8
1 3
2 2
2 5
6 1

8 5
27
1 0
4 4
3 3
7 3
3 0
1 2
0 1
1 0
6 4
2 2
1 4
2 0
7 2
3 4
6 3
6 1
3 0
0 4
5 0
7 2
2 3
4 0
7 2
4 3
4 0
1 4
4 3
8 2

9 10
14
2 4
5 5
8 1
0 3
8 4
8 3
4 1
0 6
3 6
8 5
7 3
7 8
3 2
5 7
18 2

7 10
30
0 8
6 7
5 1
6 9
3 7
4 0
5 5
0 6
4 1
3 8
4 5
3 3
1 6
6 7
6 3
1 6
0 8
0 0
1 8
1 1
1 4
5 7
2 1
5 7
2 5
0 7
6 9
6 5
1 7
6 2
15 2

6 7
34
1 3
2 2
1 2
1 6
4 3
3 2
4 4
2 0
3 6
2 1
0 0
1 3
5 5
4 5
0 2
4 1
0 0
2 2
3 2
0 1
5 0
3 0
5 4
4 3
0 0
1 0
1 0
5 2
2 4
5 5
3 6
4 0
0 6
1 5
18 2

7 7
31
2 1
6 2
4 1
4 3
3 6
0 0
3 5
5 4
0 5
0 2
4 4
5 6
3 6
0 0
6 0
4 2
3 6
1 2
6 4
0 6
5 1
0 5
1 3
2 4
0 0
0 1
3 3
4 2
6 5
5 5
5 1
20 2

9 7
40
7 5
0 6
1 5
7 0
5 6
5 4
5 2
3 5
6 5
0 1
6 2
1 6
8 6
1 2
8 1
6 3
4 3
3 4
6 1
3 6
5 4
5 3
2 4
1 0
3 6
5 6
4 0
0 6
3 5
1 1
2 6
3 5
3 3
5 5
6 6
0 3
7 0
7 2
1 1
7 3
6 2

5 10
19
1 7
2 9
3 4
2 9
1 3
1 9
4 6
1 9
4 2
1 0
1 2
0 4
0 7
4 5
4 7
4 6
2 7
0 8
0 5
7 1

10 5
16
8 3
5 4
7 2
8 0
5 1
8 0
2 1
2 0
2 4
1 4
0 1
5 4
2 4
9 1
3 4
2 1
19 1

6 9
23
0 8
5 1
4 0
5 8
5 2
2 2
4 0
1 3
5 5
0 7
0 1
4 1
1 1
5 5
1 2
0 1
1 8
3 8
4 7
2 6
0 2
3 8
3 1
8 2

7 6
2
2 1
2 5
9 2

10 6
30
9 2
8 4
3 2
2 0
4 5
6 1
2 3
5 2
7 1
4 4
2 0
1 4
0 3
3 3
2 5
0 5
5 4
1 3
1 5
2 3
4 3
1 1
6 2
4 3
5 1
9 5
9 3
0 2
1 2
2 2
19 2

5 7
31
0 0
1 0
4 1
4 2
3 1
3 3
4 6
2 2
3 5
4 0
1 2
0 4
3 2
4 5
2 5
3 1
0 5
2 2
0 6
1 1
4 6
0 1
1 1
3 1
4 4
4 6
1 2
4 3
4 1
3 0
3 2
9 1
