21

45 11
18
30 1
3 7
36 5
12 4
17 2
20 6
28 4
17 10
27 3
28 10
6 8
22 6
23 6
27 10
38 7
44 1
8 9
24 6
100 86

28 11
4
25 0
11 0
3 4
11 6
321 33

37 35
5
35 31
16 17
1 0
26 6
24 19
66 28

43 48
2
0 13
0 19
140 63

18 22
5
8 18
9 5
13 11
0 4
5 21
720 99

6 11
31
2 2
1 3
0 5
2 9
1 8
4 5
3 8
1 6
1 9
1 2
1 7
4 6
1 8
1 10
4 0
3 1
3 3
0 1
2 3
3 10
5 7
4 3
1 9
3 2
0 6
2 3
1 3
3 4
2 7
5 6
3 8
214 16

33 30
2
17 25
12 5
58 6

10 41
1
8 7
667 148

47 30
30
36 21
29 0
14 20
34 3
25 10
15 12
41 26
45 0
10 2
7 20
7 20
3 7
44 23
28 3
30 3
35 28
33 6
22 5
30 14
19 28
45 2
23 13
40 3
30 10
6 9
2 4
16 13
16 3
32 7
45 8
239 40

40 28
50
31 13
14 16
7 6
29 2
34 12
38 3
26 11
30 18
28 12
2 25
11 6
26 11
35 14
9 22
0 23
25 9
36 12
37 19
39 25
5 22
20 6
0 14
22 19
26 4
18 16
10 8
20 9
23 4
10 16
28 22
25 0
18 23
36 3
20 11
11 20
25 8
16 20
4 14
20 5
32 27
18 3
6 27
3 26
9 26
38 17
28 6
16 8
8 3
21 24
18 10
400 176

4 34
21
1 25
3 22
3 3
0 5
0 15
0 7
3 24
1 26
0 17
0 18
1 8
0 32
1 12
0 28
2 10
3 32
0 12
2 6
3 33
0 3
1 10
880 169

14 10
12
4 5
3 7
11 7
6 2
5 0
7 4
1 1
0 5
7 7
9 3
12 7
7 7
994 104

31 3
23
4 0
21 2
19 2
11 2
18 2
11 1
8 1
22 0
22 0
6 0
28 1
30 0
14 0
14 2
13 1
25 1
19 2
6 1
25 1
30 1
3 2
17 2
29 2
184 74

10 34
50
4 11
8 32
6 33
6 9
4 5
5 1
7 27
6 31
4 15
4 21
8 30
8 5
9 25
1 1
8 22
7 24
7 25
5 3
6 11
2 0
6 13
1 9
0 23
0 3
2 22
5 6
3 29
0 7
8 18
9 28
4 24
4 8
0 3
5 29
1 6
0 8
0 28
1 29
0 21
1 10
1 10
6 14
7 9
6 7
3 1
3 1
7 2
4 33
8 33
4 29
840 163

46 6
21
4 5
0 0
5 0
14 5
35 3
37 3
1 5
19 0
31 2
24 1
21 2
33 0
36 3
9 2
27 2
10 2
22 2
33 5
7 3
35 3
8 4
531 100

28 40
3
14 38
0 3
14 26
560 102

38 3
12
34 2
0 1
4 0
13 2
25 2
17 0
25 0
28 0
23 2
7 0
33 2
8 2
615 158

37 48
36
27 32
27 3
12 17
12 12
1 44
3 47
3 15
32 28
35 12
25 8
33 0
16 30
14 4
12 16
24 8
35 18
35 32
8 38
29 39
23 16
21 27
25 23
15 38
21 10
2 11
23 33
15 24
2 23
21 13
17 21
32 18
7 4
28 35
5 10
31 4
4 24
530 108

43 36
50
7 3
12 20
3 30
41 0
42 28
38 29
40 9
30 10
39 34
38 24
10 19
41 12
10 32
38 33
17 23
40 10
21 7
4 22
17 21
37 32
7 26
35 27
34 18
18 35
7 24
30 23
35 19
25 3
24 12
23 35
3 33
4 34
38 10
9 24
12 21
23 30
26 8
28 30
25 18
30 28
24 5
26 22
39 35
29 28
23 5
22 4
13 14
10 25
19 25
22 30
219 72

1 32
46
0 19
0 28
0 31
0 28
0 15
0 6
0 10
0 18
0 13
0 14
0 26
0 24
0 14
0 18
0 31
0 1
0 20
0 10
0 14
0 15
0 13
0 12
0 25
0 22
0 21
0 6
0 19
0 26
0 16
0 22
0 15
0 31
0 24
0 6
0 10
0 26
0 0
0 10
0 12
0 11
0 13
0 2
0 9
0 31
0 31
0 0
224 46

2 2
20
0 1
1 1
1 0
0 0
1 1
0 1
1 0
1 1
0 1
1 0
0 1
0 0
1 0
0 0
1 1
1 1
0 1
0 1
1 1
1 0
304 135
