30

10 10
14
4 4
6 6
2 0
1 4
9 3
6 4
6 9
0 9
3 8
7 0
4 4
3 4
4 8
8 0
10 1

10 10
15
7 1
4 2
0 7
2 1
1 7
6 1
1 5
1 9
6 2
4 1
0 7
9 9
6 9
9 6
8 9
10 1

10 10
13
4 3
5 3
9 7
5 4
9 6
4 8
6 6
5 1
6 0
1 3
4 5
7 6
5 9
10 1

10 10
8
2 3
2 3
8 6
5 6
7 6
9 3
2 2
2 5
10 1

10 10
13
8 6
4 5
8 4
2 8
6 7
0 3
3 7
7 1
4 7
1 9
5 9
0 6
7 0
10 1

10 10
5
6 9
1 7
2 7
4 0
7 2
10 1

10 10
14
0 9
4 2
2 9
4 6
5 8
0 0
8 8
9 3
7 7
6 0
1 5
2 5
0 0
6 9
10 1

10 10
11
3 7
4 4
9 2
9 6
8 4
1 9
3 8
0 8
8 8
3 6
0 2
10 1

10 10
12
1 7
1 5
1 4
8 8
6 1
0 2
7 0
1 4
4 2
6 6
1 6
3 8
10 1

10 10
14
9 2
1 6
1 0
3 1
4 8
1 6
9 5
3 8
0 4
5 3
2 7
0 8
2 5
3 1
10 1

10 10
7
9 0
6 8
7 2
2 4
5 9
0 3
5 0
10 1

10 10
15
6 2
5 5
6 9
0 7
4 5
6 9
3 4
8 7
7 9
8 4
9 8
8 7
4 4
0 1
0 5
10 1

10 10
8
8 2
2 7
7 8
6 0
7 0
0 4
6 8
3 1
10 1

10 10
11
3 3
9 5
4 2
9 9
0 7
2 3
2 0
4 5
7 7
0 3
6 7
10 1

10 10
9
4 6
6 6
9 1
1 7
0 5
3 5
1 9
6 2
3 7
10 1

10 10
7
7 3
3 5
8 9
3 5
3 1
8 5
3 0
10 1

10 10
13
1 4
1 7
6 0
8 9
1 7
4 9
7 0
6 6
3 1
8 2
6 3
5 8
2 0
10 1

10 10
15
7 9
2 4
0 3
1 5
6 1
9 4
1 8
2 0
0 8
4 8
2 0
4 8
4 5
5 5
7 6
10 1

10 10
12
2 2
7 7
3 1
4 6
7 2
4 6
4 4
5 9
5 2
9 1
1 2
8 5
10 1

10 10
15
6 0
8 4
5 7
4 7
8 7
4 4
3 3
1 4
0 2
4 8
0 3
2 9
6 3
2 3
8 7
10 1

10 10
14
8 1
2 2
3 2
0 8
9 6
7 4
5 4
3 5
6 5
2 0
9 7
6 9
3 5
7 7
10 1

10 10
10
5 7
4 9
2 3
5 4
4 2
3 5
4 7
6 2
7 6
3 2
10 1

10 10
5
4 9
0 3
9 7
1 6
0 4
10 1

10 10
14
3 4
8 6
6 2
4 9
0 7
1 2
0 5
8 5
9 6
3 5
0 7
5 4
4 2
1 9
10 1

10 10
5
0 6
5 1
7 4
9 3
6 0
10 1

10 10
6
0 8
6 2
0 7
9 1
3 4
3 8
10 1

10 10
13
2 3
4 2
6 4
7 4
9 7
2 3
3 1
5 5
4 4
7 3
2 4
0 1
7 7
10 1

10 10
11
5 2
6 5
7 0
5 4
8 3
0 9
5 2
9 0
1 0
0 0
3 3
10 1

10 10
13
1 2
8 1
6 6
5 1
3 3
1 5
2 4
4 9
0 9
9 3
7 6
1 2
9 2
10 1

10 10
9
9 2
5 8
4 3
0 1
7 2
7 6
0 0
2 9
1 0
10 1
