*** Life<Cell> 38x39 ***

Generation = 0, Population = 17.
---------------------------------------
------------0--------------------------
------0--------------------------------
---------0---0-------------------------
---------------------------------------
-------------------------------------0-
---------------------------------------
---------------------------------------
-----------------------------0---------
---------------------------------------
---------------------------------------
---------------------------------------
----------------0----------------------
---------------------------------------
---------------------------------------
---------------------------------------
---------------------------------------
-----------------------------00--------
---------------------------------------
-----0---------------------------------
---------------------------------------
---------------------------------------
---------------------------------------
---------------------------------------
---------------------------------------
---------------------------------------
---------------------------------------
---------------------------------------
---------------------------------------
---------------------------------------
-----0-0--------0----------------------
---------------------------------------
---------------------------------------
----------------------------0----------
--------------------0------------------
---------------------------------------
---------------------------------------
----------0--0-------------------------

*** Life<Cell> 19x42 ***

Generation = 0, Population = 28.
-----------------------------------------0
--------------0---------0-----------------
--0----------------------------------00---
------------------------------------------
--0----------0----------------------------
------------------------------------------
------------------------------------------
-----------------------0-----------------0
0-----------------------------------------
------------------------------0-----------
-------------0--0-------------0-----------
------0----------------------------------0
------------------------------------------
------------------0----0----------0------0
-------------------------------------0----
----------------------------------------0-
--0---------------------------0-----------
--------------------------------------0---
---0----------------------------------0---

*** Life<Cell> 25x2 ***

Generation = 0, Population = 22.
-0
-0
--
0-
00
00
--
--
--
00
-0
0-
--
-0
--
0-
-0
--
00
-0
--
00
0-
0-
0-

Generation = 8, Population = 25.
.-
..
.0
*1
.0
**
*-
10
..
1-
**
*.
1.
*-
*-
-*
-*
**
.-
..
*.
..
1.
*.
**

*** Life<Cell> 39x12 ***

Generation = 0, Population = 28.
-----------0
-------0----
------------
----0-------
------0-----
----------0-
---------0--
------------
---------0--
------------
------------
------------
----0-------
-----------0
------------
------0-----
------------
------------
0-----------
---------0--
------------
------------
------------
0---0-------
------------
------------
------------
------------
--0---------
-------0----
0-----0-----
------------
-0--------00
---------0--
------------
0-----------
---0--------
0---0-0-0---
------------

*** Life<Cell> 34x25 ***

Generation = 0, Population = 14.
-----------0-------------
-------------------------
0------------------------
-0-----------------------
-------------------------
-------------------------
-------------------------
-------------------------
-------------------------
------0------------------
-------------------------
-------------------------
------0------------------
-------------------------
-------------------------
-------------------------
-------------------------
--------------0----------
-------------------------
-------------------------
---------------------0---
------------------------0
-------------------------
-------------------------
------------------------0
----0---------0----------
-------------0-----------
------0------------------
-----0-------------------
-------------------------
-------------------------
-------------------------
-------------------------
-------------------------

*** Life<Cell> 43x30 ***

Generation = 0, Population = 16.
--------0---------------------
------------------------------
------------------------------
-----0------------------------
------------------------------
------------------------------
------------0-----------0-----
------------------------------
-----------------------0------
------------------------------
------------------------------
---0--------------------------
------------------------------
------------------------------
------------------------------
------------------------------
------------------------------
-------------------0----------
------------------------------
------------------------------
------------------------------
------------------------------
------------------------------
------------------------------
------------------------------
-----------------------------0
----------------0-------------
------------------------------
------------------------------
---0--------------------------
--------0---------------------
------------------------------
------------------------------
------------------------------
------------------------------
------------------------------
------------0-----------------
---0--------------------------
----------0-------------------
----0-------------------------
------------------------------
------------------------------
-0----------------------------

Generation = 3, Population = 192.
-----------0------------------
----0-----0-------------------
---0-0---0--------------------
--0-0-0-----0-----------0-----
---0-0-0---0-0---------0-0----
----0-0---0-0-0-------000-0---
-----0---0-0-0-0-----01*00-0--
----------0-0-0------000000---
---0-------0-0------0-00*10---
--0-0-------0--------0-000----
-0-0-0----------------0-0-----
0-0-0-0----------------0------
-0-0-0------------------------
--0-0-------------------------
---0---------------0----------
------------------0-0---------
-----------------0-0-0--------
----------------0-0-0-0-------
-----------------0-0-0--------
------------------0-0---------
-------------------0----------
------------------------------
-----------------------------0
----------------0-----------0-
---------------0-0---------0--
--------------0-0-0-------0---
---0---------0-0-0-0-------0--
--0-0---0-----0-0-0---------0-
-0-0-0-0-0-----0-0-----------0
0-0-0---0-0-----0-------------
-0-0---0-0-0------------------
--0-0-0-0-0-------------------
---0---0-0--------------------
--------0---0-----------------
---0-------0-0----------------
--0-0-------0-0---------------
-0-000-------0-0--------------
0-00*10-0-----0---------------
-0000000-0--------------------
--1*00-00-0-------------------
0--00-0--0-0------------------
-----0----0-------------------
0-----------------------------

Generation = 6, Population = 175.
--0-0-0-0-0---0---------0-----
-0-------0--------------------
----0-0-0---0-0-------01--0---
---0---0---0------------------
------0---0-0---0---00--10--0-
-0-0-0---0--------------------
------0-0-0---0----1--1.--01--
-0-0-0-0----------------------
--------0---0---00--10--.1--10
---0-0-0----------------------
----------0---0----0--01--00--
-----0---0---------0----------
------------0--------0--10----
---0---0---------0---0--------
-----------------------0------
-0---0---------0---0---0------
------------------------------
---0---------0---0---0---0----
------------------------------
---------------0---0---0-----0
----------------0-------------
-----------------0---0-----0-0
--------------0---0-----------
---0---------------0-----0-0-0
--------0---0---0---0---------
-0---0-----------------0-0-0-0
------0-------0---0---0-------
---0---0-----------------0-0-0
----0---0-------0---0---------
-----0---0-----------------0-0
--0---0---0-0-----0-----------
-------0---------------------0
----0---0---0-0-0-------------
----0-------------------------
------0---0-----0-------------
--0---00----------------------
-0------0---------0-----------
0---.1--00--------------------
-1-00-------------------------
0-1*--11--0-------------------
---1-00-----------------------
00---1--0---------------------
-----0-00-0-------------------

Generation = 9, Population = 211.
-0---------0-0-0-0----0*10----
0-----------0---0------00-----
-0-0-0-------0---------.------
0-----0-----0-0--------0------
-0-0-0-------0--------0..-----
----0---0-------0---00--00--0-
---0-0-0-0-----0-0-1*--.0-1.-0
----0----------00---000--00-00
-------0-0----0-1--0.1-0.-*0..
--------0------0--0-0-00--0--0
---0-0-----0-------1---..0----
--0---0---0-0-----------0-----
---0-0-----0------------.-----
------------0-----------0-----
-----------0-0---------1-0----
------------0----------10-----
-----------0----------0-0--0-0
----------0-0---0------0--0---
---0-------0---0-0---------0-0
--0-0-----------0-------------
------------------------------
--0-0---0---------------------
---0---0-0--------------------
--------0---------------------
-------------------0-0-0------
--------0---------0-----------
-------0-0---------0-0---0----
--------0---0-----------0-----
-------------0----------------
0---------------0-------------
-0--0----0-----0-0------------
0--0-0----0-----0-------------
----1------------------------0
-0--------------0-----------0-
0-0-0----------0-0-----------0
---0-0----------0---0---------
0--0-00----0-------0-0--------
---*.-*00-0-0-----0-0---------
-1-1.-10-0-00----0-0----------
--..10-.1-00-0----0-----------
---.0----0-00-----------------
--0-01---00-0-----------------
---00.0-0-00-0----------------

Generation = 12, Population = 237.
--0-0---0---0---0--1-*.*.--10-
------------------------------
0---0---0---0-------0--.-1--0-
-----0-0---------0---00-0000--
0-------0---0--00--1---**-1001
-------------------1-.1--*--11
0---0---0------.101......1..-*
-0---------0-1-------*1--.*---
----0------01---.-1-..1*.-.*.*
---------------1-----0-0-0-1-1
----0---0---0---1---0--.*-*---
-0-------0-----1-----00*-00-0-
--------0------0--------*-0--0
-----------0-------0-------0-0
--------0-----------0-*.----0-
-----0-----0-----------*------
-------------------0----.--0--
---0---0-------0-------1-*-0-0
--------0-----------0---1-----
-------0----------------------
-----------------------0------
-------0---0-------0-0-0---0-0
----0---0---0---0-------0-----
---0--------------------------
------------0-----------------
---0-------0---0-0-0---0-0-0--
0---0---0-0-0---0---0-------0-
----0-------------------------
--------0-------0-------------
-------0-------0---0-0-0-----0
-0*-1-1-0---0-0-0---0---0-----
0---1---1---------------------
-*----------0-------0---------
--01100------------------0-0--
100*-1--0-0-0---0-0-0---------
0----.1-1---1-----------------
-0------.-0-----0-------0-----
---..-**..1-.--0-------------0
*-1*.11-*1----1-0-----0-------
0-..-*-.-0..----1-------------
---.-0---1--1-1-----0---------
--1-1*-----0.-----------------
-11*0.01-00.-0--0-0-----------

Generation = 15, Population = 515.
---0---0-------01**--*...-.*--
--0-0---0-----00-10----0--1*0-
-0-0-0---0---01-0-----..1.----
0-0-0-0---0-00-*-0-*-1-*0-.10-
-0---0-0-0--1-01*10***-*.--*-*
------0----101---00.0*1--.011*
-0-------01*0--..0...**...**-*
0-----0--1-.0*0-00-1-.111..11-
-----0-001*-.111.**0.*1*.*....
0---0-0--10*00-*-*---01.-1..-*
-0-0-0----0-1-0*10--0--*.1.1--
----0-----00010.-1-1-10*111---
-0---0---0-0110-*10-0--1.*1--*
0-0---0-0-0-01-*01-001---01-*1
-0-------0-0--0-0-111-**1--10-
------0---0----100-*01-.*0-00-
-0---0-0-------0010001--*0-1**
0-0-0-0---0---0-01-001-1**0100
-0-0-0---0-0-0-0--1-0-0---1*0-
--0-0---0-0---0----1010001-0--
---0-0-0-0---------01-010100--
----0---0---0-0---0--0-*00--0-
---0-------0---0-0----1-0----0
--0-----0---0----------0------
-0--0--0-0---0-0-0-----------0
0--1-10-0-0-------0---------0-
--0-1000-0-0-------0-------0--
---*10110-0-0-------0-----0-0-
--1--00000-0-0-------0---0-0-0
-0*00-00*10-0-0-------0-0-0-0-
--*0*-10100--0-0---0-----0-0--
-*1-.-**.0-0--0-0-0-0-0-0-0---
-.1----00-0-0--0---0-----0----
-01.-.---000-0--------0-------
11..*..-.-101-00-----0-0-0----
*0-*1***.0-0.0110---0-0---0---
0--0--0*.0.0-00000-0-0-----0--
--**.******0.-00*1--0---------
*-..*110.*0100101-10-------0--
-*..1*1*-0.*0-1*.010--------0-
*1-.1----*1-1---*00----------0
--..-.-*---1.0--*0------------
****-***-.*.*1----------------

Generation = 18, Population = 356.
----0-0-0--------**.**...-..1*
---0-----0-------*1--10-0-..1-
------0-------1010--1*....000*
-0---0-0---0-01.1--.-.1*-***1-
--0-----0----1*..*...**..-1*-*
---0-----00-0.0*010.-.---*-1**
0---0-01--***-...-.***.....*1*
--------1--*1.1*1-0...***.**.0
--0--0--1-.-...-...-..**....**
-----0-----.10-.-*011-**--.*0.
-------0---*---.-*0-10*..-**1-
-------0-0-10...0-0-0.0.-1--0-
---------------1*-*0**0..*.0-.
-0---------0-1-.--001.1-1--*.*
--------0-------0-.-.-**1-1*.1
-------------------*-*0**--111
------0---0-------00-.-1**-*..
-0------------------01-**.*10-
--------0---0-------0-1*-01.--
---0---0-------------1-1.1----
------------0-0-------0*11----
-0--1------------------.1-----
--------0-0---0-------11--0---
--01--0------0-0--------------
00--------0-0--------0--10--0-
--0--------0-0-0-0------------
*--0*------------------0--0---
-0-.*1-----0-0-0---0----------
-0.--0------------------0---0-
-1.10---.1---0---0---0--------
--.1.-*0*-------------0---0---
*..**1**.1--------------------
-.1--*1-101-------------0-----
1-**-*1.-.00-----0---0--------
-....**-**11.-0-------------0-
.1-.*.*..1-1.-1---------------
-0-0-**..1.-0-----------------
-..**.**...1...1.1--10--------
*-..*11*..-*.-----------0-----
-...*.**11*..-1..-11--0------0
*-1.*1-0-.*-*-*0.---------0---
--....-.1-01..0-*-0-0------0-0
.***1*..-.****-*0*10----------

*** Life<Cell> 42x49 ***

Generation = 0, Population = 22.
--0----------------0-----------------------------
---------------0-----------0---------------------
----------------------0--------------------------
-------------------------------------------------
-------------------------------------------------
-------------------------------------------------
---------------------0---------------------------
------0-----------------------------------0------
-----------------------0-------------------------
--------------------------------------0----------
-------------------------0-----------------------
-------------------------------------------------
--0---------------------------------------------0
-------------------------------------------------
-------------------------------------------------
-------------------------------------------------
-------------------------------------------------
-------------------------------------------------
----------------------------------0--------------
-------------------------------------------------
-----------------------------------0-------------
-------------------------------------------------
-------------------------------------------------
-------------------------------------------------
0------------------------------------------------
-----0-------------------------------------------
----------------0--------------------------------
-------------------------------------------------
---0---------------------------------------------
-------------------------------------------------
---------------------------------------0---------
-------------------------------------------------
-------------------------------------------------
-------------------------------------------------
-------------------------------------------------
-------------------------------------------------
-------------------------------------------------
-------------------------------------------------
-------------------------------------------------
---------------------------------0---------------
-------------------------------------------------
-----------------------------0-------------------

*** Life<Cell> 4x33 ***

Generation = 0, Population = 8.
-------0----------0----0---------
0--0-----------------------------
---0---------------0-------------
----0----------------------------

*** Life<Cell> 8x1 ***

Generation = 0, Population = 2.
-
0
-
-
-
-
-
0

*** Life<Cell> 40x25 ***

Generation = 0, Population = 26.
-------------------------
--------0----------------
--0------0---------------
-------------------------
-------------------------
------------------0------
-------------------------
-----0--------------0----
-------------------------
-------------------------
-------------------------
-------------------------
-------------------------
0------------------------
--------------0----------
-------------------------
------------------0------
---------------------0---
-------------------------
---------0---0-----------
-----------------0-------
-------------------------
-----0-------------------
-------------0-----------
------0------------------
-------------------------
-------------------------
-------------------------
-------------------------
-------------------------
-----------------0-------
-----00------------------
------0------------------
--------0----------------
------------------0------
-------------------------
--------------0----------
----0--------------------
-------------------------
0-----------------0------

*** Life<Cell> 46x15 ***

Generation = 0, Population = 2.
---------------
---------------
---------------
---------------
---------------
---------------
---------------
---------------
---------------
---------------
---------------
---------------
---------------
0--------------
---------------
---------------
---------------
---------------
---------------
---------------
---------------
---------------
---------------
---------------
---------------
---------------
---------------
---------------
---------------
---------------
---------------
---------------
---------------
----0----------
---------------
---------------
---------------
---------------
---------------
---------------
---------------
---------------
---------------
---------------
---------------
---------------

Generation = 4, Population = 8.
---------------
---------------
---------------
---------------
---------------
---------------
---------------
---------------
---------------
0--------------
---------------
---------------
---------------
--0-0----------
---------------
---------------
---------------
0--------------
---------------
---------------
---------------
---------------
---------------
---------------
---------------
---------------
---------------
---------------
---------------
----0----------
---------------
---------------
---------------
0-------0------
---------------
---------------
---------------
----0----------
---------------
---------------
---------------
---------------
---------------
---------------
---------------
---------------

Generation = 8, Population = 8.
---------------
---------------
---------------
---------------
---------------
0--------------
---------------
---------------
---------------
---------------
---------------
---------------
---------------
------0-0------
---------------
---------------
---------------
---------------
---------------
---------------
---------------
0--------------
---------------
---------------
---------------
----0----------
---------------
---------------
---------------
---------------
---------------
---------------
---------------
--0---------0--
---------------
---------------
---------------
---------------
---------------
---------------
---------------
----0----------
---------------
---------------
---------------
---------------

Generation = 12, Population = 28.
---------------
0--------------
---------------
---------------
---------------
--0-0----------
---------------
---------------
---------------
0-----0-0------
---------------
---------------
---------------
--0-0-----0-0--
---------------
---------------
---------------
0-----0-0------
---------------
---------------
---------------
--0------------
---------------
---------------
---------------
--------0------
---------------
---------------
---------------
--0-0-------0--
---------------
---------------
---------------
0-----0-0-----0
---------------
---------------
---------------
--0-0-------0--
---------------
---------------
---------------
0-------0------
---------------
---------------
---------------
----0----------

Generation = 16, Population = 4.
---------------
0--------------
---------------
---------------
---------------
---------------
---------------
---------------
---------------
---------------
---------------
---------------
---------------
---------------
---------------
---------------
---------------
----0----------
---------------
---------------
---------------
---------------
---------------
---------------
---------------
---------------
---------------
---------------
---------------
0--------------
---------------
---------------
---------------
---------------
---------------
---------------
---------------
---------------
---------------
---------------
---------------
---------------
---------------
----0----------
---------------
---------------

*** Life<Cell> 1x6 ***

Generation = 0, Population = 6.
000000

Generation = 1, Population = 2.
1----1

Generation = 2, Population = 2.
-0--0-

Generation = 3, Population = 4.
1-00-1

Generation = 4, Population = 2.
--11--

Generation = 5, Population = 4.
-0**0-

Generation = 6, Population = 6.
11**11

Generation = 7, Population = 4.
*-**-*

Generation = 8, Population = 0.
.-..-.

Generation = 9, Population = 0.
.-..-.

Generation = 10, Population = 0.
.-..-.

Generation = 11, Population = 0.
.-..-.

Generation = 12, Population = 0.
.-..-.

Generation = 13, Population = 0.
.-..-.

Generation = 14, Population = 0.
.-..-.

Generation = 15, Population = 0.
.-..-.

*** Life<Cell> 20x37 ***

Generation = 0, Population = 4.
------------------------------------0
-------------------------------------
-------------------------------------
-------------------------------------
--0----------------------------------
-------------------------------------
-------------------------------------
-----------------------------------0-
-------------------------------------
---------0---------------------------
-------------------------------------
-------------------------------------
-------------------------------------
-------------------------------------
-------------------------------------
-------------------------------------
-------------------------------------
-------------------------------------
-------------------------------------
-------------------------------------

Generation = 5, Population = 50.
-0-0---------------------------0---0-
--0-----------------------------0-0-0
-------------------------------------
0-----0---------------------------0-0
-0---0-0-0---------------------------
0-----0-0-0-------------------------0
---------0---------------------0---0-
--0---------------------------0-0-0-0
-0-0-0-------0-----------------0---0-
--0-0-0-----0-0----------------------
-----0-------0---------------------0-
----------------------------------0-0
---------0-------------------------0-
--------0-0--------------------------
---------0---------------------------
-------------------------------------
-------------------------------------
-------------------------------------
-------------------------------------
-------------------------------------

*** Life<Cell> 14x25 ***

Generation = 0, Population = 1.
-------------------------
-------------------------
-------------------------
-------------------------
-------------------------
-------------------------
-------------------------
-------------------------
-------------------------
-------------------------
-------------------------
-------------------------
----------0--------------
-------------------------

Generation = 15, Population = 48.
-------0-----0-----------
------0-0-0-0-0----------
-----0-0-----0-0---------
----0-0-------0-0--------
---0-0---------0-0-------
--0-0-----------0-0------
-0-0-------------0-0-----
0-0---------------0-0----
-0-----------------0-0---
--------------------0-0--
-0-------------------0-0-
0-0-------------------0-0
-0-0-------------------0-
--0---------------------0

*** Life<Cell> 41x5 ***

Generation = 0, Population = 12.
-----
-----
-----
---0-
-----
-----
-----
-----
----0
-----
-----
-----
--0--
-----
--0-0
-----
-----
-----
-----
--0--
-----
-----
0----
-----
-----
-----
-----
-----
-----
-----
0----
-----
-----
-----
-----
-----
----0
---0-
-----
---0-
--0--

*** Life<Cell> 39x10 ***

Generation = 0, Population = 28.
----------
0---------
----------
----0---0-
----------
----------
---0-----0
----------
-0--------
----------
----------
----------
----------
----------
--00------
----------
---------0
0---------
-0--------
-0-0----0-
----------
---------0
-----0---0
----------
----------
------0---
----------
-----0--0-
---00-----
----------
--0-------
----------
----------
----------
----------
----------
0-----0---
-----0----
--0--0----

*** Life<Cell> 30x25 ***

Generation = 0, Population = 14.
-------------------------
-------------------------
-------------------------
-------------------------
---------------------0---
-------------------------
-------0-----------------
-------------------------
-------------------------
-------------------------
-------------------------
--0----------------------
-------------------------
-------------------------
-------------------------
-0-----------------------
-------------------------
------------------0------
-------------------------
-----0--------------0----
-------------------------
-------------------------
-----------0------00-----
-------------0-----------
-------------------------
-------------0-----0-----
-------------------------
0------------------------
-------------------------
-------------------------

*** Life<Cell> 20x31 ***

Generation = 0, Population = 13.
-------------------------------
-------------------------------
-------------------------------
-------------------------------
-------------------------------
-------------------------------
-------------------------------
-----0-----------0-------------
------------------------------0
-------------------0-----------
-------------------------0----0
-------------------------------
-------------------------------
------------------0------------
00-----------------------------
0------------------------------
-0-----0-----------------------
-------------------------------
---------------------0---------
-------------------------------

*** Life<Cell> 17x19 ***

Generation = 0, Population = 14.
-------------------
---------------0---
----------0--------
0------------------
-------------------
-------0-----------
-------------------
---0----0----------
-----------0-------
-------------------
-------------0-----
----------------0--
-0--------0--0-----
-------------0-----
-------------------
---------0---------
-------------------

Generation = 11, Population = 171.
0000--0-*1--00--0--
11-1----10000*0--10
0*-0*---.0-11-0--01
*..*...**10-0--*-0-
10-10---*--.-*--001
-..*1-0-..0.**01.-0
---01-1-.1-1--10--0
-00*..-.*-.1-.0*---
--001--*-101.*10-1-
-00-01-..*0.0.0-*-0
0010-**-****.-1--.-
*1*1-......0**.*0-1
*---****....**0.1..
--01-*0*1*01**.0..-
0-*-01-*01-*0.-00.-
-.0.01-*11-*..1*0.1
0-0--000-1*1**1.-0-

*** Life<Cell> 3x18 ***

Generation = 0, Population = 8.
-----------------0
--0---0-----0--0-0
-------0--0-------

*** Life<Cell> 49x6 ***

Generation = 0, Population = 18.
------
------
-----0
------
--0-0-
-0----
-0----
------
------
------
-0----
------
0-----
------
------
---0--
------
-0----
0-----
-----0
------
------
------
------
------
----0-
------
------
------
-0----
------
-----0
------
------
------
0-----
------
------
------
0-----
---0--
------
------
---0--
------
------
------
------
------

*** Life<Cell> 33x50 ***

Generation = 0, Population = 29.
---------0----------------------------------------
-----------------------------------------0-------0
--------------------------------------------------
--------------------------------------------------
--------------------0-----------------------------
----------0---------------------------------------
---------------------------------------0----------
--------------------------------------------------
--------------0-----------------------------------
--------------------------------------------------
--------------------------------------------------
--------------------------------------------------
--------------------------------------------------
--------------------------------------------------
0-------------------------------------------------
----------0------0----------------------------0---
--------------------------------------------------
-------------------------------0------------0-----
--------------------------------------------------
----------0---------------------------------------
--------------------------------------------------
-----------0-------------0------------------------
--------------------------------------------------
--------0-----------------------------------------
-------------------0--------------------------0---
----------0--------------------0------------------
--------------------------------------------------
-----------------------0----------------------0---
----------------------------------0---------------
--------------------0-----------------------------
--------------------------------------------------
--------0-------------------------0---0-----------
--------------------------0-----------------------

*** Life<Cell> 35x19 ***

Generation = 0, Population = 22.
-------------------
-------------0-----
---0---------------
-------------0-----
-------------------
--0----------------
-------------------
-------------------
-------------------
-------------------
----------0--------
-------------0-----
----00--0---------0
-------------------
-------------------
-------------------
----------------0--
--------0----------
0------------------
-------------------
-------------------
-------------------
-------------------
-------------------
--------------0----
-------------------
--------0-------0--
0------------------
-------------------
-------------------
------0------------
---0-----------0---
---------------0---
-----------0-------
-------------------

Generation = 8, Population = 114.
-------------------
--0--1-.---------0-
---0------11-------
-----0-----------0-
---000--0---------0
----*-----1--0-----
----.--------------
-------------------
--.----.--------0--
---1.---0----0-----
0--01.------------0
---0---------0---0-
1**.*-0.--1*-0--0--
--1*-0--.----------
-.*-1--1*1---------
---0*---*----------
---.----1----------
0-.----------.--1--
-----.0---1-.---0--
0---.--------1-----
----*1--.---------0
1------------------
*0----*------------
*0-1-----------0---
1-----0--------1---
----.---1--0-------
----.---0-----*.*--
--*---.-0------*---
-------------.*01--
-----------*-*---1-
1----------.*0-*100
*-.----0---*-*1111-
------00--.--0--**-
---0-------.0*-*--0
--------0--*-*-*00-

Generation = 16, Population = 267.
--****0.-0..-*--*--
--....*.1...0011---
.01**.*00-...-.*..*
-.1-1**.-.1-1.-10--
.**.*0-..--11--1---
0--0.*-1..--..1---1
0***....0*..-1.----
--1-.-.1*--10-.----
-**.****1--.-*1.---
*-1...100..00*-10--
-1...*.1-*-*---*-0-
.1.110.--.11*..11.0
.*.**.-.--*.***..1.
...*-1*.***---0-1--
1....*.***-...--*.-
*1...*11.--*1.-00..
*...1*0*..----.-.-.
--.--1---1.-*.*0...
*-.--..*...-.0.*.*.
.--*.-0-1-01.*1*.**
-*.1..*..1-11*-.---
..0..-1-111-000-.--
*0..1..*.0-0-0-*---
*...-.*-.0**-.1.0--
*-*---*-*-**-*...01
.-*..0.-....1*0.-*1
.0-..-..--.110...-*
***....-.--01-**1-1
0-*0.010**.-**.*.*-
.*.*-1-*.*-.**-*.*-
*--*.1-.-0..*1...--
**...*1*-...-.-..*1
.1.--.--.*..**-..**
.*-*01-*1-.*..-*--*
0---01*-1-.**.1*0.-

*** Life<Cell> 32x23 ***

Generation = 0, Population = 16.
----0------------------
--------------------0--
-----------------------
---0-------------------
-----------------------
----------------------0
-----------------------
---------0---0---------
----------------0------
-0---------------------
-----------------------
-----------------------
-----------------------
-----------------0-----
-----------0-----------
-----------------------
-----------------------
------0----------------
--0--------------------
-----------------------
-----------------------
---------------------0-
-----------------------
-----------------------
-----------------------
-----------------------
-----------------------
---0-------------------
-----------------------
------0----------------
--------------------0--
-----------------------

*** Life<Cell> 20x34 ***

Generation = 0, Population = 19.
----------------------------------
---------------------------------0
------------------0---------------
--0-------------------------------
----------0-----------------------
-------------------------------0--
----------------------------------
----------------------0-----------
------------------0--0----------0-
----------------------------------
----------------------------------
---------0--------------------0---
--0-------------------------------
--0-------------------------------
----------------------------------
----------------------------------
----------0-----0-------------0---
--------------------------0--0----
----------------------------------
-----0----------------------------

Generation = 3, Population = 200.
--0--------------0-0-----------0-0
-0-0------0-----0-0-0---------0---
0-0-0----0-0---0-0-0-0------------
-0-0-0--0-0-0---0-0-0---------0---
0-0-0--0-0-0-0---0-0--0------0-0--
-0-0----0-0-0----------0----0-0---
--0------0-0-----0-0----0----0----
----------0-----0-0-1----0--------
---------0-----0-00*-0-------01---
--0-----0-0-----0-000--------0100-
-010---0-0-0-----0-00-------0-0010
00*00-0-0-0-0-----0--0-----0-0-010
101010-0-0-0----------------0-0-0-
101010--0-------0------------010--
00*00------0---0-0--------0---10--
-010----0-0-0-0-0-0------0-0----0-
--0--0-0-0-0---0-0-0----0-0-1----0
----0-0-0-0-0-0-0-0----0-00*-0----
---0---0-0-0---0-0------0-000-----
--0-----0-0-----0--------0-00-----

Generation = 6, Population = 217.
--------0-0-0-0-0-0-0-0-----------
0-----0---------------1----0-----0
------1---0-0-0-0---01--0-------0-
0-0-0---0-----------0---0--0-0---0
----0---0---0-0---011-00------0---
0-0---1--0--------0---0--01--00---
--1---0---0-----01*-000--0--0-----
0-*-0--0---0----0-.-1---0--1---11-
0---0---0------11-0.1--11-01------
0-.-00---0---0----0---1------0*--0
0-*---0-------0-000--01--0--0-0---
--.0--00---0---0----0-----0-00-0--
*11-1-------0-0-0-011--0----0-1-1-
*11-1---00---0--------0-0-011-10--
--.-------0-0-0-0-0-00----1---*-0-
0-*0-00----0----------0--01-010-00
0-.-----0-0-0-0-0-0---1-0---1-----
01-110-0------------1--11-0.110110
--1---0-----0-0-----0-----1-------
-010-0-0-0-0----------0-01011010-0

