*** Life<Cell> 7x10 ***

Generation = 0, Population = 19.
----0-----
----0-----
0---0-0-00
----0--0-0
--0---0-0-
-0---0---0
-----0-0-0

Generation = 2, Population = 31.
0-0-----00
--0-0-10-1
0-0---01-0
-01-*-10-*
----10-1--
----1--1--
--00--000*

Generation = 4, Population = 35.
--*-*---*0
01--00--11
0---0--*--
0--0.1-*-.
0-1-.*111-
-0--.1-1-*
01**0*-*0.

Generation = 6, Population = 27.
--.-*--1.0
-.-1-*-011
-------*--
-*1-..-.0.
-1-0**11.-
1-1-.1--0*
-..*-.1**.

Generation = 8, Population = 25.
--.0.-1**-
-*11*.1---
---1--*.-1
1..-..-.0*
-.1-..-*.1
-*-1..1*0*
-...-....*

Generation = 10, Population = 26.
--.**1-..*
1.-1..-1**
-1-*1-..-.
-..1*.**-*
-*-1..-..-
*.-1..**-.
1...-.**..

Generation = 12, Population = 25.
-0.**.-..*
1.--..-...
--0.11..-*
-....*.*-.
1*1-.*-.**
**-..*..-*
*.*.-.*.*.

Generation = 14, Population = 20.
-0*...-...
-*-***-...
--0..-*.-.
*.......1*
1..*..-...
.**.....1*
....-.***.

*** Life<Cell> 8x9 ***

Generation = 0, Population = 20.
00-0--0--
----00---
0----0---
---------
-00--00-0
0------0-
-0----0--
---0--0-0

Generation = 2, Population = 38.
*-0-0-0-0
--00--00-
-----*-00
1---00-0-
-*---*-1-
0-10-11-0
-01101*--
01-011-00

Generation = 4, Population = 38.
.-*-00*1-
-1--10-01
10110*---
-0-1--0-0
1.-10.**0
-01--*110
1-.---.-0
*-1-.-*-*

Generation = 6, Population = 36.
.1.--**-0
-*11.*10.
*01.*.0*1
--11--*1-
-.-1*...-
--*0-***-
*0*-1-.00
.---**.-.

Generation = 8, Population = 29.
...--..-0
0.....10.
*-*.*.**.
*-----*11
-***...*-
-1.--***-
.-.*.*.0-
.**1.**-.

*** Life<Cell> 9x6 ***

Generation = 0, Population = 19.
0--0--
------
-00---
----0-
-0-0-0
-0--0-
0-00-0
0-0-00
--0---

Generation = 1, Population = 31.
-00-0-
0000--
01100-
--0---
01----
-1-0-0
10-1-1
1--01-
001000

Generation = 2, Population = 24.
---0-0
----0-
-*-110
-01-0-
1--0-0
0--1-1
----0*
-0-1-0
---111

Generation = 3, Population = 32.
--0-0-
-0-010
0*1*-1
--*-10
*--101
110*0-
10-11*
1--*--
-01---

Generation = 4, Population = 24.
---01-
-1--*-
1.*.--
--.--1
*-0---
**-.11
*-0***
*0-*-0
-1*---

Generation = 5, Population = 22.
-001-0
----*0
-*..11
--.-1-
*1-10-
*.0.--
.-1...
*--.11
--*--1

Generation = 6, Population = 30.
01-*11
--0-.1
1..**-
0-*---
**0*-1
*.1.1-
.0**..
.0-**-
01.1-*

Generation = 7, Population = 22.
1*0*--
---0.*
*.***-
-0.011
*.-.0-
*.-.--
*-....
.-0..-
1-.*1.

Generation = 8, Population = 24.
**-*11
-10-..
.*...1
0-.--*
**-*1-
**-.1-
.0....
.0-*.-
-1.**.

Generation = 9, Population = 29.
**0*-*
-*1-.*
***..*
10*0-*
..-*--
..1**1
.-....
*--**-
1*.**.

Generation = 10, Population = 24.
*.1*-.
0.*-.*
.....*
-1.--.
..0.--
..****
.-*..*
*-0**1
-****.

Generation = 11, Population = 20.
..-*1.
1.*-*.
.*....
1-.--.
.*1.11
.**.**
.0....
.01..-
-*...*

Generation = 12, Population = 23.
..-*-.
-**0*.
**....
-1*-1.
*.-.--
*...**
*-.*..
*1*..1
1**...

Generation = 13, Population = 22.
..-*-.
-*.1*.
*...*.
1-*--.
*.1*-1
**..*.
*-**.*
.*.*.-
-.*...

Generation = 14, Population = 21.
..1*-.
-.*-*.
*.*.*.
--*-1.
*.-*1-
*....*
*-.*..
.*.**1
-.*...

Generation = 15, Population = 28.
..-*-.
1.*1*.
..*.**
-1*0-*
.*-*--
**.*..
*-**.*
.*.***
-.***.

*** Life<Cell> 5x5 ***

Generation = 0, Population = 16.
--000
00000
00---
-0000
---00

Generation = 3, Population = 11.
---*-
01*-1
-1--0
--01-
--11-

Generation = 6, Population = 11.
-01*-
-....
-.--*
00110
---*0

Generation = 9, Population = 13.
*.-.-
1..**
-.--*
111*1
0-**-

Generation = 12, Population = 11.
..-*-
.**.*
-.0-*
--**-
***.-

Generation = 15, Population = 12.
..-*-
.**.*
1*0**
1-..-
...*1

*** Life<Cell> 10x10 ***

Generation = 0, Population = 17.
---0---0--
----------
-00-----0-
--0-00----
--0-------
-0--0--0--
-00-------
---------0
-0---0----
----------

Generation = 3, Population = 57.
-0-1-001-1
00-0-1--00
*1-0*0-*0-
1-1111*-0-
1-1010-0-0
-1--10-00-
*1.*-1---0
--0-1--00-
0-*00-0-0-
-00----00-

Generation = 6, Population = 60.
-*1.-01*-.
-.11-10-1-
.*-****..1
1---11*-.1
**-.1--*11
**--1-*01*
*1.**.*-*0
----.-0101
1*.000001*
-.11-111-*

Generation = 9, Population = 49.
**-.--***.
-.*1-.*11-
*...*****.
*1*-***0*-
..-.11*.*.
..-*-*.*1*
.-.....-.*
-1-1*0**-*
...-0-1-.*
0*.10-.-0.

Generation = 12, Population = 51.
.*1*-***.*
1***1**-.0
..*....*.*
*1*1***-.*
..-**-**..
..-**.**.*
**...**0.*
-*1..1**-.
...0-1.1..
*.*.-..--.

Generation = 15, Population = 29.
....0..**.
....-**1.-
..........
.-...**.*.
.*-.*1.*..
.**..*....
*....*.1..
-**.**.*-.
...01*....
....0.*.-.

*** Life<Cell> 9x6 ***

Generation = 0, Population = 18.
--0---
----0-
00---0
--0---
0----0
--0---
00----
0-0-0-
0-0-00

Generation = 4, Population = 26.
1.--*-
0-1---
*1-000
--*-0-
*00*-0
0---1-
--0--1
10.0.-
--**-1

Generation = 8, Population = 18.
**-...
-110--
**-.*.
**.1-1
**1.*-
.---.-
---.--
*....1
....--

Generation = 12, Population = 18.
***...
-*----
..0**.
.*..--
.....*
*.-0.0
---**1
...*.1
....1-

Generation = 16, Population = 16.
..**..
0..*--
..1.*.
....**
.....*
.**1.*
0*-...
......
....-1

*** Life<Cell> 8x7 ***

Generation = 0, Population = 13.
-------
-------
-------
00-0---
---0-0-
00---0-
0---0--
0-0--0-

Generation = 2, Population = 23.
-------
00-0---
---1-0-
--0*---
00-*0*-
0*-1-*-
0--1-10
-0-10--

Generation = 4, Population = 28.
---1-0-
**---1-
1--10--
*1*.-0-
-01*-*1
*.-11.-
--1---*
1001*-1

*** Life<Cell> 8x7 ***

Generation = 0, Population = 16.
-00---0
00---0-
0-0---0
-00----
-0-0---
0------
-0-0---
-------

Generation = 2, Population = 19.
-0-1--0
00-----
---1---
00-000-
0-1--00
01-----
-----0-
0------

Generation = 4, Population = 29.
---111-
-01-00-
1-**---
0*---00
--1--0*
0.0-00-
0-00-01
010----

Generation = 6, Population = 29.
0*-..-1
-*1-00-
.-.*-01
0*--1-0
01.1-**
-.01**-
-1-*--.
-100-1-

*** Life<Cell> 9x5 ***

Generation = 0, Population = 15.
-----
--0--
-0---
---0-
000-0
-0-0-
00---
0-0-0
----0

Generation = 3, Population = 20.
--000
10---
--1--
---1-
*-11-
-1*--
--0*-
--011
*1*--

Generation = 6, Population = 22.
--*-.
*1*-0
-0-1-
-1-*-
..1-*
*..0-
10*.1
1-..*
.**-*

Generation = 9, Population = 25.
*-.0.
*.*11
1--*1
.*.*-
.*1-.
**.-0
*1..*
.-**.
***0.

Generation = 12, Population = 15.
.**1.
*.*--
*0-.-
*...1
*..**
...*1
.1...
.....
...-.

*** Life<Cell> 9x10 ***

Generation = 0, Population = 14.
------00--
----0-----
------0---
--------0-
----0-----
--0-0-----
0---0-0---
----0-----
---0----0-

Generation = 1, Population = 37.
----00110-
---0-0-0--
----00-00-
----0-00-0
--0010--0-
00---00---
-000---0--
0---100-0-
--0----0-0

Generation = 2, Population = 32.
----11-*10
--0---0-0-
------011-
--0---1---
0-1-*-0---
1-0---1-0-
0--1--0---
----*-1---
00-000--0-

Generation = 3, Population = 47.
--00**1**1
-0-00-1---
-----01--0
001000--0-
1---.--00-
--1-00---0
10---0-00-
-0-0.0*00-
11-111-0-0

Generation = 4, Population = 31.
--11..****
0-0-----0-
0-0-0--1--
--------1-
*--0.-01--
----1-1-0-
*--1--0---
0--1.1.---
*-----010-

Generation = 5, Population = 47.
00-*...***
1---0-101-
1-1--01-1-
--100-10-0
.01-.0-*0-
---0---0-0
.00*--100-
-00**-.00-
.1-1--1-10

Generation = 6, Population = 40.
-1-...*..*
--0--0-1*-
*-*-01*-*-
0-*-1-----
.1-0.-0.10
--1110----
.-1.-0*---
011.*1.-1-
.*0*-1-1-1

Generation = 7, Population = 44.
0--...***.
1-10-1-**-
.-*--**1*0
10*0*----0
.--1.--.*1
---*--1-00
.--.01*00-
1**..*.---
*.1*1*--1-

Generation = 8, Population = 40.
111...*.*.
*--1-*-..-
*-.0-*.*.-
*-.1*-101-
.1--.-0*.*
--1*--*01-
.01*1*.---
-.*....0--
*.-*-*11-1

Generation = 9, Population = 31.
--*.......
*--*-*-*.-
*0*-0*.**-
*-*-*0--*-
.---*01..*
-0-.--.1*-
.1-.-*.-0-
1......110
..-.-.----

Generation = 10, Population = 45.
11........
*-1*0*-**-
*-*0-..**0
*0*-.1--*-
.111*1*..*
111.1-.**-
**1.1.*0--
-......**1
..-.-.-111

Generation = 11, Population = 33.
-****.....
*0-.-.-*.-
*0.--*...1
*1.1.*--.0
.*--.**..*
--*.--..*-
*.-.***100
1*.......-
..-.-.1-*-

Generation = 12, Population = 37.
-***......
.1-*0.1..0
.1.00.*.**
.*.-.*--*-
**-1***.**
1-..1-...0
*.1..**-11
-*.......1
..-.-.--.1

Generation = 13, Population = 34.
1*.**.....
*-1.-.***1
*-.--.*.**
.*.-..10.0
**-*..****
--*.*0...-
*.-..*.-**
-*.......-
..-.-.--.*

Generation = 14, Population = 33.
-***...**.
*1-*0**..-
*-.--*....
.**1.**-.-
**1**....*
--***-...-
.*1.**.1..
-.......*-
..-.-.--..

Generation = 15, Population = 25.
-*.*.***..
*-1*-***.-
*1.--.....
...-.**0.0
*.-.......
11...-...0
.*-.**.-..
-........1
..-.-.--..

Generation = 16, Population = 26.
-*.*.*.*..
*-**-*.*.-
***0-...*.
**.-..*1.-
**-...*.*.
--...0...-
**1....-..
-........-
..-.-.--..

Generation = 17, Population = 21.
-*.*......
*-..-..**-
...-0...*.
...1..***-
**1..**...
--*..-...-
.**....-..
1*.......-
..-.-.--..

Generation = 18, Population = 25.
-.........
.-..0..**1
...--.*..*
.**-*.*.*0
.*-*.**...
11.*.0...-
*.*....-..
***......-
..-.-.--..

Generation = 19, Population = 22.
-.......*.
.-..-..**-
...--.*...
.**1*.*.*-
..1*..**..
--.*.1*..-
...*...-..
*.*......-
.*1.-.--..

*** Life<Cell> 9x9 ***

Generation = 0, Population = 17.
----0---0
--00---0-
----0---0
00-------
-------0-
---------
0--------
---00--0-
--0-0---0

Generation = 3, Population = 46.
-0-00--0-
---1*0-00
00--10010
.10--00*-
-----100-
*1-11-0*0
100-*0--1
-11100--0
-00---0--

Generation = 6, Population = 39.
*-*-01-11
0--*.---1
---11-*10
.-1-01-*0
10**1-1--
.10.--0.-
*-11.0-**
0.--.1--1
----.1-0-

Generation = 9, Population = 36.
.1.--*1.*
---*.*..1
*0*1-*...
*-*0*.1.-
***.--.-.
**-*.01.0
*--..1-..
*.11.---*
*-11..0--

*** Life<Cell> 6x10 ***

Generation = 0, Population = 20.
0-00--00--
-----00-0-
---0-0-0--
--0-0-00--
-----0----
--00--0-0-

Generation = 4, Population = 28.
*---1-*--*
-1-*10--*1
000--.0---
------.-.0
010--*11-1
**1.1*0---

Generation = 8, Population = 27.
..-*.-..-.
-..*.11-.1
1*1*1.-**-
-1*.-**1.-
1.1-1*.*-*
..*.*.0*--

Generation = 12, Population = 27.
.*1..-**-.
-*...**1*1
....*.*.*1
...**....1
*.1*-***-*
......**-*

Generation = 16, Population = 18.
**...-..-.
**.......-
.*........
..*.***..-
.*..1**.1.
..***.*.-.

*** Life<Cell> 5x10 ***

Generation = 0, Population = 20.
-0-0--00-0
-00-0-0---
-0-----0--
0-00---0--
-0-00-0-0-

Generation = 1, Population = 24.
010--0-1--
0110--10-0
-1000--10-
--1----1--
--0-1--0-0

Generation = 2, Population = 21.
-*--0-0*00
------*10-
---110-*1-
------0--0
-01--001--

Generation = 3, Population = 28.
0.00---.11
-1-0--.-1-
--0*-1-.--
-0100011--
01*0111*00

Generation = 4, Population = 23.
-*1-0--.-*
----00.1*-
-1-.1*-*1-
----1-*--0
1*.1***.-1

Generation = 5, Population = 19.
0.*-1--.-.
--101-.-.-
0-0**.0.--
0-----.--1
*..**.*.0*

Generation = 6, Population = 19.
-**0*0-.-.
-1*1*0.-.-
1--.**-.-0
-01---.--*
........1*

Generation = 7, Population = 21.
0*.1.-0.-.
--.*.1*-.0
-1-..*0.11
-1*010.--*
........**

Generation = 8, Population = 23.
1.***-1.-.
0-...-.1*1
1*-...-***
0-*---*-0.
..***...**

Generation = 9, Population = 21.
**.*.--*1.
--**.-*-.-
*.-...-...
11*-10.1-.
.***...***

Generation = 10, Population = 23.
.*.*.--**.
--**.1.-.-
*.-.**0...
-*.0*1**-.
*..**.***.

Generation = 11, Population = 19.
...**01...
0-**.*.1.-
.*0...-*..
1**-.*..-.
..**....*.

Generation = 12, Population = 14.
..**.1*...
-1...*.*.-
..1.*.0...
*..-....0.
..**......

Generation = 13, Population = 11.
..*.*-*...
0-.....*.-
.*-..*-*..
.**0....-.
..........

Generation = 14, Population = 8.
.....-....
--...*.*.-
**-...-...
.**1....-.
..*.......

*** Life<Cell> 8x6 ***

Generation = 0, Population = 16.
-000-0
0-----
0-----
---00-
------
---00-
00--0-
00--0-

Generation = 4, Population = 28.
--0.*-
*-1---
.1--0*
101*.-
-*11*1
.1..11
*-0*11
001--0

*** Life<Cell> 5x9 ***

Generation = 0, Population = 21.
--0-000--
----0-00-
-0-----0-
-0-00000-
00-00-00-

Generation = 2, Population = 20.
01-000--0
-111---01
1*1----0-
-00-----1
-0------1

Generation = 4, Population = 23.
*1100----
1.*11-1--
*..------
0*0-1-11.
*-00--01*

Generation = 6, Population = 23.
.-*--*1--
-*.*10-11
..*-0-0*-
-.0-10-1*
**-*---**

Generation = 8, Population = 16.
.-.1-*.-*
*...*--1*
...---*.1
-.*1---..
.*1*--1.*

Generation = 10, Population = 20.
.-.11..-*
.....-1**
...1-1.**
1*.1-1-..
.***111..

Generation = 12, Population = 21.
.-.**..0.
.....-.*.
.***0***.
*..1-1-*.
***.1**..

*** Life<Cell> 5x5 ***

Generation = 0, Population = 12.
0-0--
0000-
-0--0
-0--0
--0-0

Generation = 1, Population = 11.
101--
-111-
----1
01-0-
----1

Generation = 2, Population = 12.
*1---
--**-
0-00-
1*--0
00---

Generation = 3, Population = 9.
.*-0-
--.*0
10---
*.---
--0-1

Generation = 4, Population = 13.
..-1-
0-.*1
-1001
*.0-0
00---

Generation = 5, Population = 13.
..1*-
--..-
1*11*
*.101
-1--1

Generation = 6, Population = 12.
..*.0
01..1
-.***
*.-1*
----*

Generation = 7, Population = 8.
.*.*1
1*..-
-.*..
..--.
0---*

Generation = 8, Population = 13.
***.*
**.*1
1*...
..1-.
-1-0.

Generation = 9, Population = 8.
*.*.*
...*-
-..*.
*.--.
0-0-.

Generation = 10, Population = 9.
...*.
..**-
1....
.*11.
1--0.

Generation = 11, Population = 8.
..**.
..**1
-....
**--.
---1.

Generation = 12, Population = 13.
..*.*
..*.*
1***.
..11.
110-.

Generation = 13, Population = 5.
.....
....*
*...*
..*-.
*---.

Generation = 14, Population = 5.
.....
.....
...*.
.*.1.
.10-.

Generation = 15, Population = 4.
.....
.....
..*..
.*.*.
.-1-.

Generation = 16, Population = 3.
.....
.....
..*..
.*.*.
.---.

Generation = 17, Population = 4.
.....
.....
..*..
..*..
.1-1.

Generation = 18, Population = 4.
.....
.....
.....
.***.
.-1-.

*** Life<Cell> 10x10 ***

Generation = 0, Population = 19.
--------0-
--00---0--
-0---0---0
-0-0------
00--0-----
----00----
-------0--
---0-0----
------0--0
----------

Generation = 4, Population = 44.
0----*--*1
*-**101--1
-.------*0
-*-1---*--
.*0-*-*--0
1.011.1111
-*-1------
---*---1-1
010-*000.*
---01-----

Generation = 8, Population = 51.
.-000.*-*1
.0*.1*.*-.
*.-0..0-.-
*.1**00.0*
**0-.-*--1
-*-.-.-11*
-.**-*-0--
110*1-0.-.
-*-0*-*1.*
-1**--..-0

*** Life<Cell> 7x5 ***

Generation = 0, Population = 14.
--000
--00-
--0-0
0-0-0
0---0
----0
----0

Generation = 1, Population = 20.
-0-11
-01-0
00-01
1-1--
1000-
0--0-
---01

Generation = 2, Population = 17.
010*-
-1*--
---1-
--*00
*-1-0
1----
0-0-*

Generation = 3, Population = 18.
1*1*1
--.0-
-00*-
10*1-
.-*01
-0---
1---.

Generation = 4, Population = 16.
**-**
0-.--
--1.1
*1.*-
*0.1*
---00
----.

Generation = 5, Population = 14.
**-..
1-*0-
---*-
*-..0
*-.*.
100--
---0.

Generation = 6, Population = 16.
**-..
*1*-0
---*-
.1.*-
*-**.
--10-
10--.

Generation = 7, Population = 15.
*.-..
***0-
0--*-
.-.*0
.0..*
----0
*1-0.

Generation = 8, Population = 13.
*.1..
*.*-0
1--.-
.1**-
.-..*
1---1
.*--.

Generation = 9, Population = 14.
..**.
*..--
*--.1
.***-
.0*.*
---0*
..0-.

Generation = 10, Population = 13.
.....
.*.00
*-1*-
*...0
.-..*
-011*
..--.

Generation = 11, Population = 16.
.....
.*.-1
*0*.1
.*..1
.0*.*
11--*
..00.

Generation = 12, Population = 16.
.....
***0*
*-*.-
....-
.1*.*
*-1-*
.*11.

Generation = 13, Population = 20.
.***.
*.*-.
*0*.1
..**1
.**..
*--1*
.***.

Generation = 14, Population = 16.
.***.
*..-.
*-..*
*...-
.*...
*11-*
.****

Generation = 15, Population = 16.
.**..
*.*0.
*0...
**..1
..*..
*--1*
*...*

Generation = 16, Population = 16.
.***.
*..1.
.-.*.
*.*.-
*.*.*
.1-**
...**

Generation = 17, Population = 16.
.***.
.*.-*
.-**.
..*.1
*.*.*
.-1..
..***

Generation = 18, Population = 15.
.***.
.*.1*
.-*.*
..*.*
..*..
.1-.*
..**.

Generation = 19, Population = 14.
.*.**
.*.-*
.-*.*
.**..
.**..
.-1..
..**.

*** Life<Cell> 6x9 ***

Generation = 0, Population = 14.
0------00
----000--
0---00-0-
--0------
---------
-0---00--

Generation = 1, Population = 31.
-0--00-11
---0-1100
-000--0-0
00-000-0-
-00--00--
0-0-0110-

Generation = 2, Population = 26.
0-0-1-0--
---10-*11
---1-01-1
11-------
0---01-0-
-01-1**10

Generation = 3, Population = 31.
---0*-1-1
0----1.--
000*01-0*
-*000-000
1000--01-
-1*--..*1

Generation = 4, Population = 24.
0-01*0---
1-0-0*.1-
-11.1-1-*
1.---0---
*----1-*0
--.--.***

Generation = 5, Population = 22.
1---.-11-
*0-11..--
0*-.*--0.
*.0--1-0-
.0--0*0.-
0-.--.*.*

Generation = 6, Population = 27.
*--1.0**1
.--*-**--
1.-.*-11.
*.-00*010
*--01.-.0
--.-1.**.

Generation = 7, Population = 26.
.00*.-.**
.-0*1..11
*.-..-*-*
**0--.1*-
.00-*.-.1
0-.-**.*.

Generation = 8, Population = 22.
.11.*-.**
.--.*.*-*
*.-..1*-*
*.-00*-.0
.---*.0.-
--.0**...

Generation = 9, Population = 26.
.***.0.**
.00**.*1*
..-*.-*-*
..011.1.1
.--0..-.1
--.1**...

Generation = 10, Population = 18.
.*...-..*
.-1....*.
.*1..1*1*
..1-***.-
.---..0**
--.-*....

Generation = 11, Population = 15.
.....-...
.0*......
.**.*-.**
.**-*...-
.-0-*.-*.
--.1...*.

Generation = 12, Population = 12.
.....-...
.-**.....
*....1...
...-**.*1
.-10*.0..
--.-.....

Generation = 13, Population = 11.
.....-...
.0.......
...*.**..
...-...**
.0*-*.-*.
--.1.....

Generation = 14, Population = 16.
.....-...
.-.......
......**.
..*1**.**
.1*0..0**
-1*-.....

Generation = 15, Population = 15.
.....-...
.-.......
...******
.*.***...
.-.-.*1.*
0-.-...*.

Generation = 16, Population = 19.
.....-...
.-..****.
..**..**.
..**....*
.1.0.***.
-1.-..**.

*** Life<Cell> 10x6 ***

Generation = 0, Population = 20.
-0----
0-0---
-0-0--
0----0
-0----
--000-
-0----
--0---
0000--
00-0--

Generation = 1, Population = 27.
------
------
0-0-00
-0-00-
---000
-01-10
0-000-
001---
-11-0-
--010-

Generation = 2, Population = 21.
------
0-0-00
-0-0-1
--0-10
------
-1--*-
1-1---
-1*---
--*010
-----0

Generation = 3, Population = 24.
0-0-00
-0-01-
------
---0*-
-00--0
---0.0
--*00-
-*.-00
--*---
--01-1

Generation = 4, Population = 28.
-0-0-1
--01--
-0----
-0-1*-
0110-1
-111.1
--*1-0
0*.--1
--*-1-
-0-*--

Generation = 5, Population = 31.
0-01--
-01-10
01--0-
--0-*-
1-*10*
---*.-
10.---
1*.0-*
01*0--
0-0*--

Generation = 6, Population = 30.
-0-*-1
0--1-1
1-00--
--11.-
--**1*
-1-*.1
--.--0
*..1-.
1*.110
10-*0-

Generation = 7, Population = 31.
---.-*
1----*
*--101
00**.0
--..-*
0-1*.-
10*-01
****-*
*..**1
---*--

Generation = 8, Population = 23.
0--.0.
*0-1-*
*----*
--**.-
-1..1.
11-*.-
*1.-1-
....-.
*....-
1-0*-1

Generation = 9, Population = 27.
1--.-.
*1--1*
*-0-0.
0-***0
-*..-.
-*-**-
*-*--1
**..0.
.*...1
*-1.--

*** Life<Cell> 9x9 ***

Generation = 0, Population = 24.
---0---00
----0---0
00---0--0
----000-0
0--0----0
000------
--0-0----
-0-------
-0-----0-

Generation = 1, Population = 35.
--0---01-
00-------
110-01-0-
-0--111--
1----0001
----0---0
001--0---
01--0--0-
010---0-0

Generation = 2, Population = 43.
0--0-01*0
--0-000--
--1---0-0
01-0---00
----0-1--
-000-00-1
-1*00-000
1*00-----
-*1000-0-

Generation = 3, Population = 47.
-0--0-**1
0010111--
1-*-0-101
1*0---11-
1-00-0*--
0-1--110*
-*.-10---
*.-1000-0
-.*1-1--0

Generation = 4, Population = 46.
-1--10***
-1*---*0-
--.011*1*
*.1-1-*--
-011--.01
10*--**-.
0**--100-
.*--1-1-1
0.*-0*-01

Generation = 5, Population = 40.
0*-0*-..*
0-*--1.10
11.1*-.**
..*-*1.1-
1--*-0.1*
--.-0*.0*
-..0---1-
..01*-*-*
-*.--*01-

Generation = 6, Population = 41.
-*01*-.**
--.01-*-1
-*.*.1...
*.*-.-.-0
-0-*--.*.
1-.01*.1.
-.*111-*0
..1**0.-*
0.*1-*1*-

Generation = 7, Population = 41.
0.-**0.**
--.1-1*1*
-*.*.-.*.
*..0*1.--
1-1*-0***
--.1**.-.
0*.--*-*-
..*..1.0*
-**-0*-*-

Generation = 8, Population = 35.
-.0*.-..*
01.-1-.-.
-..*.-.**
*..1.-.-0
*-*.-1.*.
-0.-...-*
1**1-*-*-
*.**.-.1*
0**-1*-*-

Generation = 9, Population = 44.
0*1*.-...
1*.1-1.1*
-****-.**
.****1*11
*0*.0-.**
11.1*..1*
-..--.-*0
.....-.**
-.*1*.-*-

Generation = 10, Population = 21.
-.-**0...
-..-1-*-*
-....1...
.....-.-*
.-..--...
--.**.**.
1..11.0.1
...*.-*..
-..-..1*-

Generation = 11, Population = 25.
-.1**1...
-..-*-*-.
-....-.*.
.....1.1.
.-..0-.*.
1-.**.**.
-.**-.-.-
...**1*..
-..1..-*1

Generation = 12, Population = 30.
-.****...
-..-*1*-.
-....1.*.
.....-.-*
.-.*1-.**
-1*.****.
1.*.1.-*-
.....-**.
-..*.*-**

Generation = 13, Population = 25.
-..*..*..
-..-.-.-.
-...**.*.
....*1*1*
.0**--..*
-**......
-.*.*.0.1
...**-...
-.....1**

Generation = 14, Population = 29.
-........
-..1*1*1.
-...*..**
..*..*.**
.-.*-1*.*
1......*.
-**.**-.-
...**1*.*
-.....**.

Generation = 15, Population = 24.
-...***..
-..**-*-*
-........
...*.*...
.-..--..*
-***...*.
-**...-*1
..**.*...
-...*.**.

Generation = 16, Population = 32.
-..**.**.
-..**1*-.
-..*.*...
.........
.0.*-1...
1*.*...*.
1...*.0**
.*****..*
-..****..

Generation = 17, Population = 23.
-..*..**.
-.*..*.-.
-..*.**..
..*......
*1..--...
-*.*.*.**
*.....1.*
.**.....*
-.....*..

Generation = 18, Population = 23.
-.....*..
-.**.*.1.
-.*****..
.**......
*-..-1...
1**...***
*.....-.*
.*.......
-........

Generation = 19, Population = 20.
-.....*..
-.*....-.
-....**..
.**...*..
*1..1-**.
*.....***
*.*...1.*
.........
-........

*** Life<Cell> 9x7 ***

Generation = 0, Population = 22.
---000-
---0---
0------
-----00
----000
0-00--0
00-0-0-
-----0-
-000---

Generation = 2, Population = 33.
001-0-1
-0----0
0-01--1
1-000--
-01-**-
-1*--1-
0--*0-0
1-1---1
-*0*1--

Generation = 4, Population = 27.
-*.-0-.
1-1---0
*10---*
*1*-00-
0-.-..-
1-.0-.1
*1-.*--
*1.1-*.
-.*..1-

Generation = 6, Population = 27.
-*.10**
*-.-11-
*.-*1-*
...-*-0
--*-..*
--.--.-
.11**1-
*-.-1..
-*.**.1

Generation = 8, Population = 24.
1.*.-..
.-.-.1-
.*-..-*
...1.10
01.1..*
1-.11.-
.*-...-
*-.-1.*
0.***.1

Generation = 10, Population = 21.
-...-..
.-.-.11
*.-..1*
**.*..*
0..1..*
.*.-*.-
..*...-
.-.-..*
-*****.

Generation = 12, Population = 20.
-...-..
.1.-.--
*.-*.1.
..*....
*...*.*
.**-*.*
.*.**.*
.-.-..*
-**..*.

Generation = 14, Population = 17.
-...-..
.1.-.-1
..1*.-.
.*.**..
*......
*..**..
**....*
.1*-*..
-......

*** Life<Cell> 6x7 ***

Generation = 0, Population = 13.
0---00-
--00---
00-----
0------
0-0----
-000---

Generation = 1, Population = 18.
-00-110
--11-0-
-1-0---
--0----
101----
-1110--

Generation = 2, Population = 23.
01-0**1
-0--01-
0--100-
001----
*1*-0--
--*-10-

Generation = 3, Population = 24.
1--1..*
01111*-
11-*1-0
11---0-
**.-1--
0-*--10

Generation = 4, Population = 24.
*--*.*.
1*--*.0
**0.---
**100--
..*0-00
11.1-*1

Generation = 5, Population = 18.
*-0.**.
*.--**-
..-.--0
*.-11-0
...11--
**.*-*-

*** Life<Cell> 5x10 ***

Generation = 0, Population = 15.
-0----0--0
------0---
---00--000
00--------
00--0---0-

Generation = 3, Population = 24.
-10-00.0--
-*-0*0--*0
**-1*--.1*
1--*-0100-
---0------

Generation = 6, Population = 23.
----11*-1-
0.*1.-1-.-
*.1..0-*..
*11*-.---0
*-0**---**

Generation = 9, Population = 20.
--*-**.1*-
-....*.1.-
..-**1*..*
*--.1.---*
*-1...01.*

Generation = 12, Population = 22.
-1**...-*-
1*...****-
.*1...***.
**-.*.-10.
.-*..*....

Generation = 15, Population = 8.
*-.....1.0
*..*.....-
..........
..1...-1-.
.1........
