*** Life<ConwayCell> 25x48 ***

Generation = 0, Population = 30.
...*..........................................*.
..........*.......................*.............
......................................*.*..*....
.....*....................................*.....
........................................*.......
........................*.......................
................................................
.............*.......................*..........
................................................
..*.............................................
...................................*............
.*...............*.....................*........
............................................*...
................................................
*...........*................................*..
....................*..........................*
................................................
....*.*.........................................
..............................*.................
........................................*.......
................................................
................................................
...............................*................
................................................
.........*......................................

Generation = 41, Population = 0.
................................................
................................................
................................................
................................................
................................................
................................................
................................................
................................................
................................................
................................................
................................................
................................................
................................................
................................................
................................................
................................................
................................................
................................................
................................................
................................................
................................................
................................................
................................................
................................................
................................................

Generation = 82, Population = 0.
................................................
................................................
................................................
................................................
................................................
................................................
................................................
................................................
................................................
................................................
................................................
................................................
................................................
................................................
................................................
................................................
................................................
................................................
................................................
................................................
................................................
................................................
................................................
................................................
................................................

Generation = 123, Population = 0.
................................................
................................................
................................................
................................................
................................................
................................................
................................................
................................................
................................................
................................................
................................................
................................................
................................................
................................................
................................................
................................................
................................................
................................................
................................................
................................................
................................................
................................................
................................................
................................................
................................................

Generation = 164, Population = 0.
................................................
................................................
................................................
................................................
................................................
................................................
................................................
................................................
................................................
................................................
................................................
................................................
................................................
................................................
................................................
................................................
................................................
................................................
................................................
................................................
................................................
................................................
................................................
................................................
................................................

Generation = 205, Population = 0.
................................................
................................................
................................................
................................................
................................................
................................................
................................................
................................................
................................................
................................................
................................................
................................................
................................................
................................................
................................................
................................................
................................................
................................................
................................................
................................................
................................................
................................................
................................................
................................................
................................................

*** Life<ConwayCell> 26x36 ***

Generation = 0, Population = 18.
...................*................
...........................*........
....................................
....................................
...........................*....*...
....................................
...................................*
....................................
...................*................
....................................
.............*......................
....................................
.............*...........*....*.....
................................*...
....................................
....................................
....*...............................
....................................
....................................
.......................*............
....................................
..........*.........................
....................................
.....................*.........*....
....................................
.....................*.......*......

Generation = 48, Population = 0.
....................................
....................................
....................................
....................................
....................................
....................................
....................................
....................................
....................................
....................................
....................................
....................................
....................................
....................................
....................................
....................................
....................................
....................................
....................................
....................................
....................................
....................................
....................................
....................................
....................................
....................................

Generation = 96, Population = 0.
....................................
....................................
....................................
....................................
....................................
....................................
....................................
....................................
....................................
....................................
....................................
....................................
....................................
....................................
....................................
....................................
....................................
....................................
....................................
....................................
....................................
....................................
....................................
....................................
....................................
....................................

Generation = 144, Population = 0.
....................................
....................................
....................................
....................................
....................................
....................................
....................................
....................................
....................................
....................................
....................................
....................................
....................................
....................................
....................................
....................................
....................................
....................................
....................................
....................................
....................................
....................................
....................................
....................................
....................................
....................................

Generation = 192, Population = 0.
....................................
....................................
....................................
....................................
....................................
....................................
....................................
....................................
....................................
....................................
....................................
....................................
....................................
....................................
....................................
....................................
....................................
....................................
....................................
....................................
....................................
....................................
....................................
....................................
....................................
....................................

*** Life<ConwayCell> 21x21 ***

Generation = 0, Population = 23.
............*........
.........*...........
.....................
......*..............
........*...*........
.....*...............
....*................
.**...*..............
..................*..
.*...*...............
.......*.............
...................*.
.....................
.....................
.....................
.....................
.....................
..................*..
*...................*
............**.......
.*.............*..*..

Generation = 41, Population = 0.
.....................
.....................
.....................
.....................
.....................
.....................
.....................
.....................
.....................
.....................
.....................
.....................
.....................
.....................
.....................
.....................
.....................
.....................
.....................
.....................
.....................

Generation = 82, Population = 0.
.....................
.....................
.....................
.....................
.....................
.....................
.....................
.....................
.....................
.....................
.....................
.....................
.....................
.....................
.....................
.....................
.....................
.....................
.....................
.....................
.....................

Generation = 123, Population = 0.
.....................
.....................
.....................
.....................
.....................
.....................
.....................
.....................
.....................
.....................
.....................
.....................
.....................
.....................
.....................
.....................
.....................
.....................
.....................
.....................
.....................

Generation = 164, Population = 0.
.....................
.....................
.....................
.....................
.....................
.....................
.....................
.....................
.....................
.....................
.....................
.....................
.....................
.....................
.....................
.....................
.....................
.....................
.....................
.....................
.....................

Generation = 205, Population = 0.
.....................
.....................
.....................
.....................
.....................
.....................
.....................
.....................
.....................
.....................
.....................
.....................
.....................
.....................
.....................
.....................
.....................
.....................
.....................
.....................
.....................

*** Life<ConwayCell> 27x19 ***

Generation = 0, Population = 35.
.............*.....
........*..........
.*.*...............
...................
.............*.....
..................*
............*.....*
...........*.....**
..................*
...................
...*...............
..........*........
..**...........*...
...................
..........*........
...............*.*.
....*........*.....
..................*
...............**..
...................
.......*.......*...
.......*...........
...................
...*.......*.*.....
...................
..........*........
.....*.*......*....

*** Life<ConwayCell> 16x48 ***

Generation = 0, Population = 5.
...........................................*....
................................................
................................................
................*...............................
...............................................*
................................................
.................*..............................
................................................
............*...................................
................................................
................................................
................................................
................................................
................................................
................................................
................................................

Generation = 45, Population = 0.
................................................
................................................
................................................
................................................
................................................
................................................
................................................
................................................
................................................
................................................
................................................
................................................
................................................
................................................
................................................
................................................

Generation = 90, Population = 0.
................................................
................................................
................................................
................................................
................................................
................................................
................................................
................................................
................................................
................................................
................................................
................................................
................................................
................................................
................................................
................................................

Generation = 135, Population = 0.
................................................
................................................
................................................
................................................
................................................
................................................
................................................
................................................
................................................
................................................
................................................
................................................
................................................
................................................
................................................
................................................

*** Life<ConwayCell> 14x12 ***

Generation = 0, Population = 8.
....*.......
............
............
............
............
*...........
............
.*..........
*...........
...*........
.*..........
......*.....
.*..........
............

Generation = 38, Population = 0.
............
............
............
............
............
............
............
............
............
............
............
............
............
............

Generation = 76, Population = 0.
............
............
............
............
............
............
............
............
............
............
............
............
............
............

Generation = 114, Population = 0.
............
............
............
............
............
............
............
............
............
............
............
............
............
............

Generation = 152, Population = 0.
............
............
............
............
............
............
............
............
............
............
............
............
............
............

Generation = 190, Population = 0.
............
............
............
............
............
............
............
............
............
............
............
............
............
............

Generation = 228, Population = 0.
............
............
............
............
............
............
............
............
............
............
............
............
............
............

Generation = 266, Population = 0.
............
............
............
............
............
............
............
............
............
............
............
............
............
............

*** Life<ConwayCell> 32x49 ***

Generation = 0, Population = 2.
.................................................
.................................................
.................................................
.................................................
.................................................
.................................................
.................................................
.................................................
.................................................
.................................................
.................................................
.................................................
.................................................
.......................................*.........
.................................................
.................................................
.................................................
.................................................
.................................................
.................................................
.................................................
.................................................
.................................................
.................................................
.................................................
.................................................
.............................................*...
.................................................
.................................................
.................................................
.................................................
.................................................

Generation = 23, Population = 0.
.................................................
.................................................
.................................................
.................................................
.................................................
.................................................
.................................................
.................................................
.................................................
.................................................
.................................................
.................................................
.................................................
.................................................
.................................................
.................................................
.................................................
.................................................
.................................................
.................................................
.................................................
.................................................
.................................................
.................................................
.................................................
.................................................
.................................................
.................................................
.................................................
.................................................
.................................................
.................................................

Generation = 46, Population = 0.
.................................................
.................................................
.................................................
.................................................
.................................................
.................................................
.................................................
.................................................
.................................................
.................................................
.................................................
.................................................
.................................................
.................................................
.................................................
.................................................
.................................................
.................................................
.................................................
.................................................
.................................................
.................................................
.................................................
.................................................
.................................................
.................................................
.................................................
.................................................
.................................................
.................................................
.................................................
.................................................

Generation = 69, Population = 0.
.................................................
.................................................
.................................................
.................................................
.................................................
.................................................
.................................................
.................................................
.................................................
.................................................
.................................................
.................................................
.................................................
.................................................
.................................................
.................................................
.................................................
.................................................
.................................................
.................................................
.................................................
.................................................
.................................................
.................................................
.................................................
.................................................
.................................................
.................................................
.................................................
.................................................
.................................................
.................................................

Generation = 92, Population = 0.
.................................................
.................................................
.................................................
.................................................
.................................................
.................................................
.................................................
.................................................
.................................................
.................................................
.................................................
.................................................
.................................................
.................................................
.................................................
.................................................
.................................................
.................................................
.................................................
.................................................
.................................................
.................................................
.................................................
.................................................
.................................................
.................................................
.................................................
.................................................
.................................................
.................................................
.................................................
.................................................

Generation = 115, Population = 0.
.................................................
.................................................
.................................................
.................................................
.................................................
.................................................
.................................................
.................................................
.................................................
.................................................
.................................................
.................................................
.................................................
.................................................
.................................................
.................................................
.................................................
.................................................
.................................................
.................................................
.................................................
.................................................
.................................................
.................................................
.................................................
.................................................
.................................................
.................................................
.................................................
.................................................
.................................................
.................................................

Generation = 138, Population = 0.
.................................................
.................................................
.................................................
.................................................
.................................................
.................................................
.................................................
.................................................
.................................................
.................................................
.................................................
.................................................
.................................................
.................................................
.................................................
.................................................
.................................................
.................................................
.................................................
.................................................
.................................................
.................................................
.................................................
.................................................
.................................................
.................................................
.................................................
.................................................
.................................................
.................................................
.................................................
.................................................

Generation = 161, Population = 0.
.................................................
.................................................
.................................................
.................................................
.................................................
.................................................
.................................................
.................................................
.................................................
.................................................
.................................................
.................................................
.................................................
.................................................
.................................................
.................................................
.................................................
.................................................
.................................................
.................................................
.................................................
.................................................
.................................................
.................................................
.................................................
.................................................
.................................................
.................................................
.................................................
.................................................
.................................................
.................................................

*** Life<ConwayCell> 32x42 ***

Generation = 0, Population = 30.
.....................*....................
..........................................
.........*................................
..........................................
.......................*..................
..........................................
..................................*.......
..........................................
.....*....................................
...........*................*.............
..........................................
..........................................
..........................................
...............*.*........................
............*.............................
*..........*..............................
..............................*....*...*..
......*.**................................
.*.............*....................*.....
....*.....................................
...........................*..............
...................*......................
.......................................*..
..........................................
.................................*........
..........................................
....................................*.....
..........................................
..............................*...........
..........................................
...........*..............................
...................................*......

*** Life<ConwayCell> 26x41 ***

Generation = 0, Population = 10.
....................*....................
.........................................
.........................................
.........................................
.....*...................................
.........................................
.........................................
.........................................
..*......................................
.........................................
.........................................
.........................................
.........................................
......................*..................
.........................................
.........................................
.........................................
..................................*......
.........................................
.........................................
.....*...................................
.........................................
............*............................
*.......................................*
................................*........
.........................................

Generation = 36, Population = 0.
.........................................
.........................................
.........................................
.........................................
.........................................
.........................................
.........................................
.........................................
.........................................
.........................................
.........................................
.........................................
.........................................
.........................................
.........................................
.........................................
.........................................
.........................................
.........................................
.........................................
.........................................
.........................................
.........................................
.........................................
.........................................
.........................................

Generation = 72, Population = 0.
.........................................
.........................................
.........................................
.........................................
.........................................
.........................................
.........................................
.........................................
.........................................
.........................................
.........................................
.........................................
.........................................
.........................................
.........................................
.........................................
.........................................
.........................................
.........................................
.........................................
.........................................
.........................................
.........................................
.........................................
.........................................
.........................................

Generation = 108, Population = 0.
.........................................
.........................................
.........................................
.........................................
.........................................
.........................................
.........................................
.........................................
.........................................
.........................................
.........................................
.........................................
.........................................
.........................................
.........................................
.........................................
.........................................
.........................................
.........................................
.........................................
.........................................
.........................................
.........................................
.........................................
.........................................
.........................................

Generation = 144, Population = 0.
.........................................
.........................................
.........................................
.........................................
.........................................
.........................................
.........................................
.........................................
.........................................
.........................................
.........................................
.........................................
.........................................
.........................................
.........................................
.........................................
.........................................
.........................................
.........................................
.........................................
.........................................
.........................................
.........................................
.........................................
.........................................
.........................................

Generation = 180, Population = 0.
.........................................
.........................................
.........................................
.........................................
.........................................
.........................................
.........................................
.........................................
.........................................
.........................................
.........................................
.........................................
.........................................
.........................................
.........................................
.........................................
.........................................
.........................................
.........................................
.........................................
.........................................
.........................................
.........................................
.........................................
.........................................
.........................................

*** Life<ConwayCell> 50x13 ***

Generation = 0, Population = 19.
.............
.............
.............
.............
.............
......*......
.............
..........*..
....*.*...*..
.............
.............
.............
.............
.............
.............
....*........
.............
.............
.............
.............
.............
............*
.............
.............
..*..........
...........*.
.............
.............
.............
......*......
.............
.............
.............
.*...........
..........*..
.............
.............
.............
....*........
.............
.............
.............
.......*.....
............*
.............
.*...........
.............
.............
...*..*......
............*

Generation = 46, Population = 0.
.............
.............
.............
.............
.............
.............
.............
.............
.............
.............
.............
.............
.............
.............
.............
.............
.............
.............
.............
.............
.............
.............
.............
.............
.............
.............
.............
.............
.............
.............
.............
.............
.............
.............
.............
.............
.............
.............
.............
.............
.............
.............
.............
.............
.............
.............
.............
.............
.............
.............

Generation = 92, Population = 0.
.............
.............
.............
.............
.............
.............
.............
.............
.............
.............
.............
.............
.............
.............
.............
.............
.............
.............
.............
.............
.............
.............
.............
.............
.............
.............
.............
.............
.............
.............
.............
.............
.............
.............
.............
.............
.............
.............
.............
.............
.............
.............
.............
.............
.............
.............
.............
.............
.............
.............

*** Life<ConwayCell> 32x21 ***

Generation = 0, Population = 23.
.....................
....................*
.....................
.....................
...*.......*.*.......
*...........*........
.....................
.............*.......
.........*.......*...
...*.....*...........
.....................
*....................
.....................
*......*.............
.....................
*....*...............
.....................
.....................
..........*...*..*...
.....................
.....................
.....................
.....................
.....................
.....................
.....................
.....................
......*..............
......*..............
.....................
..........*..........
...................*.

Generation = 22, Population = 0.
.....................
.....................
.....................
.....................
.....................
.....................
.....................
.....................
.....................
.....................
.....................
.....................
.....................
.....................
.....................
.....................
.....................
.....................
.....................
.....................
.....................
.....................
.....................
.....................
.....................
.....................
.....................
.....................
.....................
.....................
.....................
.....................

Generation = 44, Population = 0.
.....................
.....................
.....................
.....................
.....................
.....................
.....................
.....................
.....................
.....................
.....................
.....................
.....................
.....................
.....................
.....................
.....................
.....................
.....................
.....................
.....................
.....................
.....................
.....................
.....................
.....................
.....................
.....................
.....................
.....................
.....................
.....................

Generation = 66, Population = 0.
.....................
.....................
.....................
.....................
.....................
.....................
.....................
.....................
.....................
.....................
.....................
.....................
.....................
.....................
.....................
.....................
.....................
.....................
.....................
.....................
.....................
.....................
.....................
.....................
.....................
.....................
.....................
.....................
.....................
.....................
.....................
.....................

Generation = 88, Population = 0.
.....................
.....................
.....................
.....................
.....................
.....................
.....................
.....................
.....................
.....................
.....................
.....................
.....................
.....................
.....................
.....................
.....................
.....................
.....................
.....................
.....................
.....................
.....................
.....................
.....................
.....................
.....................
.....................
.....................
.....................
.....................
.....................

Generation = 110, Population = 0.
.....................
.....................
.....................
.....................
.....................
.....................
.....................
.....................
.....................
.....................
.....................
.....................
.....................
.....................
.....................
.....................
.....................
.....................
.....................
.....................
.....................
.....................
.....................
.....................
.....................
.....................
.....................
.....................
.....................
.....................
.....................
.....................

*** Life<ConwayCell> 39x7 ***

Generation = 0, Population = 17.
...*...
.......
.......
.......
.......
..*....
.*.....
...*.*.
.......
.......
.*.....
.......
*......
.......
.......
.......
.*.....
.......
.......
.......
......*
.......
.......
.......
.....*.
....*..
.....*.
.......
.......
.......
.......
.*...*.
.......
.......
....*..
.......
.......
..*...*
.......

Generation = 21, Population = 0.
.......
.......
.......
.......
.......
.......
.......
.......
.......
.......
.......
.......
.......
.......
.......
.......
.......
.......
.......
.......
.......
.......
.......
.......
.......
.......
.......
.......
.......
.......
.......
.......
.......
.......
.......
.......
.......
.......
.......

Generation = 42, Population = 0.
.......
.......
.......
.......
.......
.......
.......
.......
.......
.......
.......
.......
.......
.......
.......
.......
.......
.......
.......
.......
.......
.......
.......
.......
.......
.......
.......
.......
.......
.......
.......
.......
.......
.......
.......
.......
.......
.......
.......

Generation = 63, Population = 0.
.......
.......
.......
.......
.......
.......
.......
.......
.......
.......
.......
.......
.......
.......
.......
.......
.......
.......
.......
.......
.......
.......
.......
.......
.......
.......
.......
.......
.......
.......
.......
.......
.......
.......
.......
.......
.......
.......
.......

Generation = 84, Population = 0.
.......
.......
.......
.......
.......
.......
.......
.......
.......
.......
.......
.......
.......
.......
.......
.......
.......
.......
.......
.......
.......
.......
.......
.......
.......
.......
.......
.......
.......
.......
.......
.......
.......
.......
.......
.......
.......
.......
.......

Generation = 105, Population = 0.
.......
.......
.......
.......
.......
.......
.......
.......
.......
.......
.......
.......
.......
.......
.......
.......
.......
.......
.......
.......
.......
.......
.......
.......
.......
.......
.......
.......
.......
.......
.......
.......
.......
.......
.......
.......
.......
.......
.......

*** Life<ConwayCell> 47x42 ***

Generation = 0, Population = 20.
.............................*............
..........................................
..........................................
..............*...........................
..............................*...........
..........................................
..........................................
..........................................
...........*..............................
................................*.........
..........................................
............*.............................
................................*.........
..........................................
..........................................
..........................................
..........................................
.....................................*....
..........................................
..........................................
..........................................
..........................................
..........................................
...............*..........................
......*...................................
..........................................
..........................................
.........*................................
..........................................
....................................*.....
................................*.........
..........................................
..........................................
.....*....................................
..........................................
........................*.................
..........................................
..........................................
..........................................
..........................................
*.........................................
........................................*.
..........................................
..........................................
....................*.....................
..........................................
........*.................*...............

Generation = 33, Population = 0.
..........................................
..........................................
..........................................
..........................................
..........................................
..........................................
..........................................
..........................................
..........................................
..........................................
..........................................
..........................................
..........................................
..........................................
..........................................
..........................................
..........................................
..........................................
..........................................
..........................................
..........................................
..........................................
..........................................
..........................................
..........................................
..........................................
..........................................
..........................................
..........................................
..........................................
..........................................
..........................................
..........................................
..........................................
..........................................
..........................................
..........................................
..........................................
..........................................
..........................................
..........................................
..........................................
..........................................
..........................................
..........................................
..........................................
..........................................

Generation = 66, Population = 0.
..........................................
..........................................
..........................................
..........................................
..........................................
..........................................
..........................................
..........................................
..........................................
..........................................
..........................................
..........................................
..........................................
..........................................
..........................................
..........................................
..........................................
..........................................
..........................................
..........................................
..........................................
..........................................
..........................................
..........................................
..........................................
..........................................
..........................................
..........................................
..........................................
..........................................
..........................................
..........................................
..........................................
..........................................
..........................................
..........................................
..........................................
..........................................
..........................................
..........................................
..........................................
..........................................
..........................................
..........................................
..........................................
..........................................
..........................................

Generation = 99, Population = 0.
..........................................
..........................................
..........................................
..........................................
..........................................
..........................................
..........................................
..........................................
..........................................
..........................................
..........................................
..........................................
..........................................
..........................................
..........................................
..........................................
..........................................
..........................................
..........................................
..........................................
..........................................
..........................................
..........................................
..........................................
..........................................
..........................................
..........................................
..........................................
..........................................
..........................................
..........................................
..........................................
..........................................
..........................................
..........................................
..........................................
..........................................
..........................................
..........................................
..........................................
..........................................
..........................................
..........................................
..........................................
..........................................
..........................................
..........................................

*** Life<ConwayCell> 45x4 ***

Generation = 0, Population = 18.
....
*...
....
....
....
..*.
...*
....
....
....
....
....
....
....
.*..
....
....
....
....
....
....
.*.*
.*..
....
....
....
....
....
....
*...
....
...*
*.*.
....
....
....
..*.
*..*
..*.
....
....
....
..*.
...*
.*..

Generation = 31, Population = 3.
....
....
....
....
....
....
....
....
....
....
....
....
....
....
....
....
....
....
....
....
....
....
....
....
....
....
....
....
....
....
....
....
....
....
....
....
....
.***
....
....
....
....
....
....
....

*** Life<ConwayCell> 15x14 ***

Generation = 0, Population = 18.
.....*........
..............
....*.*.......
.......*......
.....*.....**.
..............
......*....**.
.........*...*
.....**.......
..*...........
...*..........
..........*...
.....*........
..............
..............

Generation = 29, Population = 0.
..............
..............
..............
..............
..............
..............
..............
..............
..............
..............
..............
..............
..............
..............
..............

Generation = 58, Population = 0.
..............
..............
..............
..............
..............
..............
..............
..............
..............
..............
..............
..............
..............
..............
..............

Generation = 87, Population = 0.
..............
..............
..............
..............
..............
..............
..............
..............
..............
..............
..............
..............
..............
..............
..............

*** Life<ConwayCell> 19x36 ***

Generation = 0, Population = 29.
............*......*......*.........
....................................
....................................
..*.................................
.......*........................*...
....................................
....................................
...........*.....*..................
..................*..*..........*...
......*.............................
*.........*.....*..........*.*......
...................*................
..........................*.........
.................................*..
.....*....*............*............
....................................
....................................
.*.......*..................**......
......*................*............

Generation = 33, Population = 0.
....................................
....................................
....................................
....................................
....................................
....................................
....................................
....................................
....................................
....................................
....................................
....................................
....................................
....................................
....................................
....................................
....................................
....................................
....................................

Generation = 66, Population = 0.
....................................
....................................
....................................
....................................
....................................
....................................
....................................
....................................
....................................
....................................
....................................
....................................
....................................
....................................
....................................
....................................
....................................
....................................
....................................

Generation = 99, Population = 0.
....................................
....................................
....................................
....................................
....................................
....................................
....................................
....................................
....................................
....................................
....................................
....................................
....................................
....................................
....................................
....................................
....................................
....................................
....................................

*** Life<ConwayCell> 16x24 ***

Generation = 0, Population = 21.
..*...............*.....
....*.............*....*
..............*..*......
................*.......
........................
....................*...
.............*..........
........................
..*.....................
.........*..............
..........*.*.*....*....
........................
*..................*....
........*...............
............*...........
....*...................

Generation = 21, Population = 4.
........................
.................**.....
.................**.....
........................
........................
........................
........................
........................
........................
........................
........................
........................
........................
........................
........................
........................

Generation = 42, Population = 4.
........................
.................**.....
.................**.....
........................
........................
........................
........................
........................
........................
........................
........................
........................
........................
........................
........................
........................

Generation = 63, Population = 4.
........................
.................**.....
.................**.....
........................
........................
........................
........................
........................
........................
........................
........................
........................
........................
........................
........................
........................

Generation = 84, Population = 4.
........................
.................**.....
.................**.....
........................
........................
........................
........................
........................
........................
........................
........................
........................
........................
........................
........................
........................

Generation = 105, Population = 4.
........................
.................**.....
.................**.....
........................
........................
........................
........................
........................
........................
........................
........................
........................
........................
........................
........................
........................

Generation = 126, Population = 4.
........................
.................**.....
.................**.....
........................
........................
........................
........................
........................
........................
........................
........................
........................
........................
........................
........................
........................

Generation = 147, Population = 4.
........................
.................**.....
.................**.....
........................
........................
........................
........................
........................
........................
........................
........................
........................
........................
........................
........................
........................

Generation = 168, Population = 4.
........................
.................**.....
.................**.....
........................
........................
........................
........................
........................
........................
........................
........................
........................
........................
........................
........................
........................

Generation = 189, Population = 4.
........................
.................**.....
.................**.....
........................
........................
........................
........................
........................
........................
........................
........................
........................
........................
........................
........................
........................

Generation = 210, Population = 4.
........................
.................**.....
.................**.....
........................
........................
........................
........................
........................
........................
........................
........................
........................
........................
........................
........................
........................

Generation = 231, Population = 4.
........................
.................**.....
.................**.....
........................
........................
........................
........................
........................
........................
........................
........................
........................
........................
........................
........................
........................

Generation = 252, Population = 4.
........................
.................**.....
.................**.....
........................
........................
........................
........................
........................
........................
........................
........................
........................
........................
........................
........................
........................

*** Life<ConwayCell> 9x23 ***

Generation = 0, Population = 25.
......*..*..*..........
*...*.......*...**.....
..*..*.....*..*.....*..
.*....................*
....*.............*.*..
..*............*.......
..............*........
.*....*................
.*..................*..

Generation = 34, Population = 3.
............*..........
............*..........
............*..........
.......................
.......................
.......................
.......................
.......................
.......................

Generation = 68, Population = 3.
............*..........
............*..........
............*..........
.......................
.......................
.......................
.......................
.......................
.......................

Generation = 102, Population = 3.
............*..........
............*..........
............*..........
.......................
.......................
.......................
.......................
.......................
.......................

Generation = 136, Population = 3.
............*..........
............*..........
............*..........
.......................
.......................
.......................
.......................
.......................
.......................

Generation = 170, Population = 3.
............*..........
............*..........
............*..........
.......................
.......................
.......................
.......................
.......................
.......................

*** Life<ConwayCell> 47x18 ***

Generation = 0, Population = 7.
..................
..................
..................
..................
..................
.....*...........*
..................
..................
..................
......*...........
..................
..................
..................
..................
..................
..................
..................
..................
..................
..................
........*.........
...............*..
..................
..................
..................
..................
........*.........
..................
..................
..................
...*..............
..................
..................
..................
..................
..................
..................
..................
..................
..................
..................
..................
..................
..................
..................
..................
..................

Generation = 25, Population = 0.
..................
..................
..................
..................
..................
..................
..................
..................
..................
..................
..................
..................
..................
..................
..................
..................
..................
..................
..................
..................
..................
..................
..................
..................
..................
..................
..................
..................
..................
..................
..................
..................
..................
..................
..................
..................
..................
..................
..................
..................
..................
..................
..................
..................
..................
..................
..................

*** Life<ConwayCell> 18x36 ***

Generation = 0, Population = 16.
....................................
....................................
..............*.....................
....................................
........*...........................
....................................
..........*...........*......*......
...........*........................
...........................*........
..............*.....................
......*............*................
...........*........................
............*.............*.....*...
....................................
....................................
....................................
...............*..............*.....
....................................

Generation = 41, Population = 0.
....................................
....................................
....................................
....................................
....................................
....................................
....................................
....................................
....................................
....................................
....................................
....................................
....................................
....................................
....................................
....................................
....................................
....................................
