20

25 48
30
2 40
10 35
0 46
3 5
7 13
14 45
22 31
7 37
12 44
17 4
1 10
14 0
11 17
3 42
11 1
2 38
17 6
19 40
24 9
11 39
4 40
1 34
14 12
2 43
15 47
15 20
9 2
18 30
0 3
5 24
235 41

26 36
18
0 19
13 32
25 21
23 31
25 29
12 13
23 21
6 35
4 27
1 27
12 25
4 32
19 23
12 30
16 4
10 13
21 10
8 19
212 48

21 21
24
18 0
20 15
4 12
7 1
11 19
1 9
20 1
6 4
7 6
4 8
10 7
7 2
3 6
20 18
18 20
19 13
9 5
9 1
8 18
19 12
5 5
10 7
0 12
17 18
210 41

27 19
35
6 18
7 11
6 12
23 11
16 13
18 15
10 3
0 13
2 1
8 18
26 5
2 3
16 4
5 18
17 18
23 3
15 17
18 16
14 10
26 7
12 3
25 10
26 14
7 18
4 13
12 2
15 15
1 8
20 15
12 15
23 13
20 7
21 7
7 17
11 10
7 26

16 48
5
6 17
0 43
4 47
3 16
8 12
165 45

14 12
8
7 1
5 0
11 6
12 1
8 0
10 1
0 4
9 3
298 38

32 49
2
13 39
26 45
172 23

32 42
30
9 11
16 39
18 36
6 34
13 15
8 5
17 9
16 35
19 4
15 0
13 17
20 27
31 35
28 30
2 9
30 11
22 39
21 19
9 28
17 6
24 33
0 21
18 1
14 12
18 15
16 30
26 36
4 23
17 8
15 11
15 39

26 41
10
20 5
4 5
0 20
23 40
23 0
17 34
24 32
8 2
13 22
22 12
209 36

50 13
20
25 11
48 6
42 7
21 12
8 10
8 4
45 1
48 3
7 10
29 6
38 4
49 12
33 1
15 4
43 12
8 6
34 10
5 6
45 1
24 2
121 46

32 21
23
18 17
18 14
7 13
5 12
9 3
1 20
18 10
5 0
4 11
4 3
15 5
4 13
15 0
28 6
11 0
9 9
27 6
31 19
8 9
13 7
13 0
8 17
30 10
113 22

39 7
19
25 4
31 1
31 5
7 5
5 2
20 6
37 2
34 4
24 5
16 1
26 5
10 1
12 0
31 1
26 5
37 6
6 1
0 3
7 3
120 21

47 42
21
44 20
27 9
3 14
17 37
35 24
11 12
41 40
9 32
0 29
33 5
4 30
29 36
23 15
12 32
8 11
24 6
46 8
46 26
27 9
30 32
40 0
106 33

45 4
20
38 2
1 0
42 2
37 0
36 2
14 1
6 3
31 3
29 0
44 1
22 1
43 3
5 2
42 2
21 3
21 1
32 2
37 3
32 0
5 2
37 31

15 14
19
4 5
8 6
2 6
4 12
12 5
6 6
9 2
2 4
6 11
3 7
10 3
0 5
4 11
7 9
11 10
2 6
8 5
7 13
6 12
104 29

19 36
30
14 5
8 32
3 2
10 10
7 11
17 1
13 33
17 9
8 18
4 32
7 17
4 7
10 29
10 0
12 26
17 28
0 26
18 6
14 10
8 21
10 16
14 23
0 12
0 19
11 19
18 23
10 27
9 6
7 11
17 29
125 33

16 24
23
15 4
2 14
12 0
9 9
10 10
10 14
5 20
1 18
0 2
12 0
10 12
12 19
6 13
14 12
10 10
8 2
1 4
13 8
1 23
0 18
10 19
2 17
3 16
272 21

9 23
26
4 4
1 16
1 17
2 20
1 12
1 4
2 14
3 22
8 1
1 16
1 0
5 2
5 15
4 20
7 6
3 1
0 6
4 18
0 12
6 14
0 9
2 11
8 20
2 2
2 5
7 1
196 34

47 18
7
5 17
5 5
20 8
21 15
30 3
26 8
9 6
45 25

18 36
16
9 14
10 19
12 26
2 14
10 6
12 32
7 11
6 29
11 11
6 10
12 12
8 27
16 30
16 15
6 22
4 8
74 41
